Symbol,Name,Class,CIK,CUSIP,shares_outstanding
MMM,3M,,66740,88579Y101,576278731
AOS,A. O. Smith,,91142,831865209,133190310
ABT,Abbott,,1800,002824100,1768336212
ABBV,AbbVie,,1551152,00287Y109,1767679055
ABMD,Abiomed,,815094,003654100,45465383
ACN,Accenture,a,1467373,G1151C101,656911028
ATVI,Activision Blizzard,,718877,00507V109,778538432
ADM,ADM,,7084,039483102,559419893
ADBE,Adobe,,796343,00724F101,475616964
ADP,ADP,,8670,053015103,421904563
AAP,Advance Auto Parts,,1158449,00751Y106,62693329
AES,AES,,874761,00130H105,666631057
AFL,Aflac,,4977,001055102,663553082
A,Agilent Technologies,,1090872,00846U101,302486671
AIG,AIG,,5272,026874784,839329029
APD,Air Products,,2969,009158106,221435478
AKAM,Akamai,,1086222,00971T101,162610657
ALK,Alaska Air Group,,766421,011659109,125284971
ALB,Albemarle,,915913,012653101,116967501
ARE,Alexandria,,1035443,015271109,154511938
ALGN,Align,,1097149,016255101,78904132
ALLE,Allegion,,1579241,G0176J109,89695923
LNT,Alliant Energy,,352541,018802108,250359668
ALL,Allstate,,899051,020002101,289249003
GOOG,Alphabet,c,1652044,02079K107,318272000
GOOGL,Alphabet,a,1652044,02079K305,300870104
MO,Altria,,764180,02209S103,1838665807
AMZN,Amazon,,1018724,023135106,506984443
AMCR,Amcor,,1748790,G0250X107,1535535524
AMD,AMD,,2488,007903107,1208963872
AEE,Ameren,,1002910,023608102,257454862
AAL,American Airlines Group,,6201,02376R102,647504554
AEP,American Electric Power,,4904,025537101,502645454
AXP,American Express,,4962,025816109,778705969
AMT,American Tower,,1053507,03027X100,455347837
AWK,American Water,,1410636,030420103,181524956
AMP,Ameriprise Financial,,820027,03076C106,112501724
ABC,AmerisourceBergen,,1140859,03073E105,208012927
AME,Ametek,,1037868,031100100,231285754
AMGN,Amgen,,318154,031162100,564727518
APH,Amphenol,a,820313,032095101,598074498
ADI,Analog Devices,,6281,032654105,471807526
ANSS,Ansys,,1013462,03662Q105,87252801
ANTM,Anthem,,1156039,036752103,242896127
AON,Aon,a,315293,G0403H108,222057982
APA,APA Corporation,,1841666,03743Q108,368403747
AAPL,Apple,,320193,037833100,16428158582
AMAT,Applied Materials,,6951,038222105,896436134
APTV,Aptiv,,1521332,G6095L109,270511975
ANET,Arista,,1596532,040413106,76788814
AIZ,Assurant,,1267238,04621X108,57582275
T,AT&T,,732717,00206R102,7140670329
ATO,Atmos Energy,,731802,049560105,131808519
ADSK,Autodesk,,769397,052769106,219893158
AZO,AutoZone,,866787,053332102,21048542
AVB,AvalonBay Communities,,915912,053484101,139699536
AVY,Avery Dennison,,8818,053611109,82825359
BKR,Baker Hughes,a,1701605,05722G100,862674700
BLL,Ball,,9389,058498106,324838920
BAC,Bank of America,,70858,060505104,8257642005
BBWI,Bath & Body Works,,701985,070830104,261961402
BAX,Baxter,,10456,071813109,500504099
BDX,Becton Dickinson,,10795,075887109,284847412
WRB,Berkley,,11544,084423102,176920809
BRK.B,Berkshire Hathaway,b,1067983,084670702,1310069169
BBY,Best Buy,,764478,086516101,244106828
BIO,Bio-Rad,a,12208,090572207,24802626
TECH,Bio-Techne,,842023,09073M104,39197758
BIIB,Biogen,,875045,09062X103,147368430
BLK,BlackRock,,1364742,09247X101,152014087
BK,BNY Mellon,,1390777,064058100,826227069
BA,Boeing,,12927,097023105,587342150
BKNG,Booking Holdings,,1075531,09857L108,41062363
BWA,BorgWarner,,908255,099724106,239777505
BXP,Boston Properties,,1037540,101121101,156192987
BSX,Boston Scientific,,885725,101137107,1424616709
BMY,Bristol Myers Squibb,,14272,110122108,2219671767
AVGO,Broadcom,,1730168,11135F101,412072369
BR,Broadridge,,1383312,11133T103,116442987
BRO,Brown & Brown,,79282,115236101,282192631
BF.B,Brown–Forman,b,14693,115637209,309724540
CHRW,C.H. Robinson,,1043277,12541W209,130518010
CDNS,Cadence,,813672,127387108,277129098
CZR,Caesars Entertainment,,1590895,12769G100,213661736
CPB,Campbell's,,16732,134429109,301557767
COF,Capital One,,927628,14040H105,430702647
CAH,Cardinal Health,,721371,14149Y108,284797882
KMX,CarMax,,1170010,143130102,162113218
CCL,Carnival,,815097,143658300,981377730
CARR,Carrier,,1783180,14448C104,866779099
CTLT,Catalent,,1596783,148806102,171018952
CAT,Caterpillar,,18230,149123101,541012576
CBOE,Cboe,,1374310,12503M108,106637949
CBRE,CBRE,a,1138118,12504L109,334936441
CDW,CDW,,1402057,12514G108,136307347
CE,Celanese,,1306830,150870103,109265501
CNC,Centene,,1071739,15135B101,583422163
CNP,CenterPoint Energy,,1130310,15189T107,620071757
CDAY,Ceridian,,1725057,15677J108,150879112
CERN,Cerner,,804753,156782104,294612202
CF,CF Industries,,1324404,125269100,214701916
CRL,Charles River,,1100682,159864107,50447268
SCHW,Charles Schwab,,316709,808513105,1810449977
CHTR,Charter Communications,a,1091667,16119P108,179340324
CVX,Chevron,,93410,166764100,1927753593
CMG,Chipotle Mexican Grill,,1058090,169656105,28125487
CB,Chubb,,896159,H1467J104,432147654
CHD,Church & Dwight,,313927,171340102,244577547
CI,Cigna,,1739940,125523100,334289235
CINF,Cincinnati Financial,,20286,172062101,161151583
CTAS,Cintas,,723254,172908105,103402837
CSCO,Cisco,,858877,17275R102,4217691661
C,Citigroup,,831001,172967424,1984729390
CFG,Citizens,,759944,174610105,426170148
CTXS,Citrix,,877890,177376100,124562514
CLX,Clorox,,21076,189054109,122850792
CME,CME Group,a,1156375,12572Q105,359356009
CMS,CMS Energy,,811156,125896100,289691698
KO,Coca-Cola,,21344,191216100,4318653500
CTSH,Cognizant,a,1058290,192446102,525339049
CL,Colgate-Palmolive,,21665,194162103,842855917
CMCSA,Comcast,a,1166691,20030N101,4559704911
CMA,Comerica,,28412,200340107,131993224
ED,Con Edison,,1047862,209115104,353621108
CAG,Conagra Brands,,23217,205887102,479692489
COP,ConocoPhillips,,1163165,20825C104,1319165728
STZ,Constellation Brands,a,16918,21036P108,164345412
COO,CooperCompanies,,711404,216648402,49339815
CPRT,Copart,,900075,217204106,237109941
GLW,Corning,,24741,219350105,853554830
CTVA,Corteva,,1755672,22052L104,731860510
COST,Costco,,909832,22160K105,441844702
CTRA,Coterra,,858470,127097103,671294887
CCI,Crown Castle,,1051470,22822V101,432200670
CSX,CSX,,277948,126408103,2218380285
CMI,Cummins,,26172,231021106,143057136
CVS,CVS Health,,64803,126650100,1319909760
DHI,D.R. Horton,,882184,23331A109,357153559
DHR,Danaher,,313616,235851102,714457781
DRI,Darden,,940944,237194105,129467875
DVA,DaVita,,927066,23918K108,102694047
DE,Deere & Co.,,315189,244199105,308767283
DAL,Delta Air Lines,,27904,247361702,640012742
XRAY,Dentsply Sirona,,818479,24906P109,218585944
DVN,Devon,,1090012,25179M103,677000000
DXCM,DexCom,,1093557,252131107,96880177
FANG,Diamondback,,1539838,25278X109,181134691
DLR,Digital Realty,,1297996,253868103,283328214
DFS,Discover,,1393612,254709108,294691487
DISCA,Discovery,a,1437107,25470F104,169176848
DISCK,Discovery,c,1437107,25470F302,330146263
DISH,Dish,a,1001082,25470M109,290099059
DIS,Disney,,1744489,254687106,1817408916
DG,Dollar General,,29534,256677105,232655640
DLTR,Dollar Tree,,935703,256746108,224930153
D,Dominion Energy,,715957,25746U109,809439918
DPZ,Domino's,,1286681,25754A201,36431294
DOV,Dover,,29905,260003108,143981264
DOW,Dow,,1751788,260557103,739681340
DTE,DTE,,936340,233331107,193727541
DUK,Duke Energy,,1326160,26441C204,769341363
DRE,Duke Realty,,783280,264411505,380078026
DD,DuPont,,1666700,26614N102,519899930
DXC,DXC Technology,,1688568,23355L106,252117486
EMN,Eastman,,915389,277432100,134454870
ETN,Eaton,,1551182,G29183103,398600000
EBAY,eBay,,1065088,278642103,634125243
ECL,Ecolab,,31462,278865100,286562088
EIX,Edison International,,827052,281020107,379851033
EW,Edwards Lifesciences,,1099800,28176E108,624046880
EA,Electronic Arts,,712515,285512109,283529303
EMR,Emerson,,32604,291011104,595654471
ENPH,Enphase,,1463101,29355A107,134838834
ETR,Entergy,,65984,29364G103,200972482
EOG,EOG Resources,,821189,26875P101,584702318
EPAM,EPAM,,1352010,29414B104,56689860
EFX,Equifax,,33185,294429105,121985275
EQIX,Equinix,,1101239,29444U700,89936202
EQR,Equity Residential,,906107,29476L107,374874965
ESS,Essex,,920522,297178105,65072342
EL,Estée Lauder Companies,a,1001250,518439104,232245303
ETSY,Etsy,,1370637,29786A106,126713509
RE,Everest,,1095073,G3223R108,39549730
EVRG,Evergy,,1711269,30034W106,229301096
ES,Eversource,,72741,30040W108,343749270
EXC,Exelon,,1109357,30161N101,978312513
EXPE,Expedia Group,,1324424,30212P303,145825282
EXPD,Expeditors,,746515,302130109,169580548
EXR,Extra Space Storage,,1289490,30225T102,133861167
XOM,ExxonMobil,,34088,30231G102,4233566796
FFIV,F5,,1048695,315616102,60866166
FDS,FactSet,,1013237,303075105,37659249
FAST,Fastenal,,815556,311900104,575107447
FRT,Federal Realty,,34903,313745101,77781995
FDX,FedEx,,1048911,31428X106,265557231
FITB,Fifth Third Bank,,35527,316773100,686178498
FRC,First Republic,,1132979,33616C100,178480870
FE,FirstEnergy,,1031296,337932107,544417162
FIS,FIS,,1136893,31620M106,612231506
FISV,Fiserv,,798354,337738108,660730544
FLT,Fleetcor,,1175454,339041105,81702746
FMC,FMC,,37785,302491303,126772667
F,Ford,,37996,345370860,3925016091
FTNT,Fortinet,,1262039,34959E109,163431985
FTV,Fortive,,1659166,34959J108,358523702
FBHS,Fortune Brands,,1519751,34964C106,136111414
FOXA,Fox Corporation,a,1754301,35137L105,321506340
FOX,Fox Corporation,b,1754301,35137L204,250051906
BEN,Franklin Templeton,,38777,354613101,502148127
FCX,Freeport-McMoRan,,831259,35671D857,1468338636
AJG,Gallagher,,354190,363576109,207272260
GPS,Gap,,39911,364760108,374890763
GRMN,Garmin,,1121788,H2906T109,192322001
IT,Gartner,,749251,366651107,82703758
GE,GE,,40545,369604301,1181649801
GNRC,Generac,,1474735,368736104,63100642
GD,General Dynamics,,40533,369550108,279236833
GIS,General Mills,,40704,370334104,605282712
GPC,Genuine Parts,,40987,372460105,142586849
GILD,Gilead,,882095,375558103,1254194264
GPN,Global Payments,,1123360,37940X102,291311353
GL,Globe Life,,320335,37959E102,101207342
GM,GM,,1467858,37045V100,1451839420
GS,Goldman Sachs,,886982,38141G104,335231933
GWW,Grainger,,277135,384802104,51526072
HAL,Halliburton,,45012,406216101,894304395
HIG,Hartford (The),,874766,416515104,342432750
HAS,Hasbro,,46080,418056107,137869477
HCA,HCA Healthcare,,860730,40412C101,313628257
PEAK,Healthpeak,,765880,42250P103,539034562
HSIC,Henry Schein,,1000228,806407102,138965497
HSY,Hershey's,,47111,427866108,145399003
HES,Hess,,4447,42809H107,309726307
HPE,Hewlett Packard Enterprise,,1645590,42824C109,1303622708
HLT,Hilton,,1585689,43300A203,278713448
HOLX,Hologic,,859737,436440101,252214055
HD,Home Depot,,354950,437076102,1050104417
HON,Honeywell,,773840,438516106,688444456
HRL,Hormel,,48465,440452100,542560999
HST,Host Hotels & Resorts,,1070750,44107P104,714012465
HWM,Howmet Aerospace,,4281,443201108,427832359
HPQ,HP,,47217,40434L105,1118192748
HUM,Humana,,49071,444859102,128533968
HII,Huntington Ingalls Industries,,1501585,446413106,40087267
HBAN,Huntington National Bank,,49196,446150104,1446788381
IBM,IBM,,51143,459200101,896795129
IEX,IDEX,,832101,45167R104,76023063
IDXX,Idexx Laboratories,,874716,45168D104,84878608
INFO,IHS Markit,,1598014,G47567105,398898187
ITW,Illinois Tool Works,,49826,452308109,313892541
ILMN,Illumina,,1110803,452327109,153135164
INCY,Incyte,,879169,45337C102,220874195
IR,Ingersoll Rand,,1699150,45687V106,411432639
INTC,Intel,,50863,458140100,4067169491
ICE,Intercontinental Exchange,,1571949,45866F104,563333153
IFF,International Flavors & Fragrances,,51253,459506101,252642622
IP,International Paper,,51434,460146103,388136188
IPG,Interpublic Group,,51644,460690100,393731775
INTU,Intuit,,896878,461202103,277094914
ISRG,Intuitive Surgical,,1035267,46120E602,317925445
IVZ,Invesco,,914208,G491BT108,461208530
IPGP,IPG Photonics,,1111928,44980X109,53379134
IQV,IQVIA,,1478242,46266C105,191174664
IRM,Iron Mountain,,1020569,46284V101,289520096
JBHT,J.B. Hunt,,728535,445658107,105015872
JKHY,Jack Henry & Associates,,779152,426281101,74030716
J,Jacobs,,52988,469814107,129499987
JNJ,Johnson & Johnson,,200406,478160104,2632567934
JCI,Johnson Controls,,833444,G51502105,706385558
JPM,JPMorgan Chase,,19617,46625H100,2955623553
JNPR,Juniper Networks,,1043604,48203R104,325172100
K,Kellogg's,,55067,487836108,341114764
KEY,KeyCorp,,91576,493267108,939312138
KEYS,Keysight,,1601046,49338L103,183843430
KMB,Kimberly-Clark,,55785,494368103,336725891
KIM,Kimco Realty,,879101,49446R109,564166750
KMI,Kinder Morgan,,1506307,49456B101,2267206785
KLAC,KLA,,319201,482480100,151854965
KHC,Kraft Heinz,,1637459,500754106,1224725956
KR,Kroger,,56873,501044101,742060526
LHX,L3Harris,,202058,502431109,197517358
LH,LabCorp,,920148,50540R409,95959550
LRCX,Lam Research,,707549,512807108,141172846
LW,Lamb Weston,,1679273,513272104,146070119
LVS,Las Vegas Sands,,1300514,517834107,763989752
LDOS,Leidos,,1336920,525327102,140689592
LEN,Lennar,a,920760,526057104,269361445
LLY,Lilly,,59478,532457108,956589244
LNC,Lincoln Financial,,59558,534187109,183324981
LIN,Linde,,1707925,G5494J103,512596650
LYV,Live Nation Entertainment,,1335258,538034109,222891959
LKQ,LKQ Corporation,,1065696,501889208,292277176
LMT,Lockheed Martin,,936468,539830109,276044386
L,Loews Corporation,,60086,540424108,254867474
LOW,Lowe's,,60667,548661107,684958489
LUMN,Lumen,,18926,550241103,1050708880
LYB,LyondellBasell,,1489393,N53745100,333316689
MTB,M&T Bank,,36270,55261F104,128682344
MRO,Marathon Oil,,101778,565849106,781824212
MPC,Marathon Petroleum,,1510295,56585A102,623043009
MKTX,MarketAxess,,1278021,57060D108,38020170
MAR,Marriott International,a,1048286,571903202,325676342
MMC,Marsh & McLennan,,62709,571748102,505199642
MLM,Martin Marietta,,916076,573284106,62380528
MAS,Masco,,62996,574599106,244120921
MA,Mastercard,a,1141391,57636Q104,975886163
MTCH,Match Group,,891103,57667L107,281016767
MKC,McCormick,nonvoting,63754,579780206,249445004
MCD,McDonald's,,63908,580135101,747240573
MCK,McKesson,,927653,58155Q103,152703822
MDT,Medtronic,,1613103,G5960L103,1345410925
MRK,Merck,,310158,58933Y105,2527832896
FB,Meta,a,1326801,30303M102,2370415181
MET,MetLife,,1099219,59156R108,846348303
MTD,Mettler Toledo,,1037646,592688105,22987082
MGM,MGM Resorts,,789570,552953101,473750602
MCHP,Microchip,,827054,595017104,466348041
MU,Micron,,723125,595112103,1118767774
MSFT,Microsoft,,789019,594918104,7509728003
MAA,Mid-America Apartments,,912595,59522J103,115075922
MRNA,Moderna,,1682852,60770K107,404855060
MHK,Mohawk Industries,,851968,608190104,68131409
TAP,Molson Coors,b,24545,60871R209,200582224
MDLZ,Mondelez International,a,1103982,609207105,1395843145
MPWR,Monolithic Power Systems,,1280452,609839105,46030263
MNST,Monster Beverage,,865752,61174X109,529055608
MCO,Moody's,,1059556,615369105,185903260
MS,Morgan Stanley,,895421,617446448,1804351223
MOS,Mosaic,,1285785,61945C103,379257178
MSI,Motorola Solutions,,68505,620076307,168971768
MSCI,MSCI,,1408198,55354G100,82445741
NDAQ,Nasdaq,,1120193,631103108,167216615
NTAP,NetApp,,1002047,64110D104,223141703
NFLX,Netflix,,1065280,64110L106,442948321
NWL,Newell Brands,,814453,651229106,425400000
NEM,Newmont,,1164727,651639106,797814875
NWSA,News Corp,a,1564708,65249B109,392435891
NWS,News Corp,b,1564708,65249B208,199630240
NEE,NextEra Energy,,753308,65339F101,1962132962
NLSN,Nielsen,,1492633,G6518L108,358926058
NKE,Nike,b,320187,654106103,1277789593
NI,NiSource,,1111711,65473P105,392620593
NSC,Norfolk Southern,,702165,655844108,243383940
NTRS,Northern Trust,,73124,665859104,207669220
NOC,Northrop Grumman,,1133421,666807102,158986631
NLOK,NortonLifeLock,,849399,668771108,581603292
NCLH,Norwegian Cruise Line Holdings,,1513761,G66721104,370032081
NRG,NRG Energy,,1013871,629377508,244814214
NUE,Nucor,,73309,670346105,286059170
NVDA,Nvidia,,1045810,67066G104,2500000000
NVR,NVR,,906163,62944T105,3510630
NXPI,NXP,,1413447,N6596X109,265670050
ORLY,O'Reilly Automotive,,898173,67103H107,67948948
OXY,Occidental Petroleum,,797468,674599105,933978303
ODFL,Old Dominion,,878927,679580100,115304106
OMC,Omnicom Group,,29989,681919106,212846173
OKE,Oneok,,1039684,682680103,445857907
ORCL,Oracle,,1341439,68389X105,2721059923
OGN,Organon,,1821825,68622V106,253547761
OTIS,Otis,,1781335,68902V107,425122319
PCAR,Paccar,,75362,693718108,347176070
PKG,Packaging Corporation of America,,75677,695156109,94991235
VIAC,Paramount,b,813828,92556H206,606382552
PH,Parker,,76334,701094104,128524567
PAYX,Paychex,,723531,704326107,360643718
PAYC,Paycom,,1590955,70432V102,60046165
PYPL,PayPal,,1633917,70450Y103,1174964164
PENN,Penn National Gaming,,921738,707569109,165176301
PNR,Pentair,,77360,G7S00T104,165482402
PBCT,People's United Financial,,1378946,712704105,427997318
PEP,PepsiCo,,77476,713448108,1382659180
PKI,PerkinElmer,,31791,714046109,120627691
PFE,Pfizer,,78003,717081103,5610150887
PM,Philip Morris International,,1413329,718172109,1557296586
PSX,Phillips 66,,1534701,718546104,438099067
PNW,Pinnacle West,,764622,723484101,112807985
PXD,Pioneer Natural Resources,,1038357,723787107,244085185
PNC,PNC Financial Services,,713676,693475105,423054420
POOL,Pool Corporation,,945841,73278L105,40091643
PPG,PPG Industries,,79879,693506107,237400371
PPL,PPL,,922224,69351T106,757215660
PFG,Principal,,1126328,74251V102,265873193
PG,Procter & Gamble,,80424,742718109,2420070393
PGR,Progressive,,80661,743315103,585064733
PLD,Prologis,,1045609,74340W103,739307791
PRU,Prudential,,1137774,744320102,380782608
PEG,PSEG,,788784,744573106,505644639
PTC,PTC,,857005,69370C100,117647438
PSA,Public Storage,,1393311,74460D109,175313858
PHM,PulteGroup,,822416,745867101,254632531
PVH,PVH,,78239,693656100,70705123
QRVO,Qorvo,,1604778,74736K101,110515871
QCOM,Qualcomm,,804328,747525103,1122693877
PWR,Quanta,,1050915,74762E102,141248776
DGX,Quest Diagnostics,,1022079,74834L100,122588855
RL,Ralph Lauren,a,1037038,751212101,48701023
RJF,Raymond James,,720005,754730109,173628876
RTX,Raytheon Technologies,,101829,75513E101,1496898397
O,Realty Income,,726728,756109104,399325653
REG,Regency Centers,,910606,758849103,170683179
REGN,Regeneron,,872589,75886F107,105564718
RF,Regions,,1281761,7591EP100,953757370
RSG,Republic Services,,1060391,760759100,317412309
RMD,ResMed,,943819,761152107,145708967
RHI,Robert Half,,315213,770323103,111340693
ROK,Rockwell Automation,,1024478,773903109,115993289
ROL,Rollins,,84839,775711104,492054066
ROP,Roper,,882835,776696106,105464771
ROST,Ross,,745732,778296103,354314283
RCL,Royal Caribbean Group,,884887,V7780T103,254759758
SPGI,S&P Global,,64040,78409V104,241000000
CRM,Salesforce,,1108524,79466L302,981164948
SBAC,SBA Communications,a,1034054,78410G104,109018926
SLB,Schlumberger,,87347,806857108,1402586938
STX,Seagate,,1137789,G7997R103,224173385
SEE,Sealed Air,,1012100,81211K100,148760582
SRE,Sempra Energy,,1032208,816851109,319334150
NOW,ServiceNow,,1373715,81762P102,198990217
SHW,Sherwin-Williams,,89800,824348106,262208220
SBNY,Signature Bank,,1288784,82669G104,60634200
SPG,Simon,a,1063761,828806109,328611163
SWKS,Skyworks,,4127,83088M102,165284574
SJM,Smucker,,91419,832696405,108360683
SNA,Snap-on,,91440,833034101,53768532
SEDG,SolarEdge,,1419612,83417M104,52447515
SO,Southern Company,,92122,842587107,1059793299
LUV,Southwest Airlines,,92380,844741108,591850313
SWK,Stanley Black & Decker,,93556,854502101,163007104
SBUX,Starbucks,,829224,855244109,1175477192
STT,State Street,,93751,857477103,360523159
STE,Steris,,1757898,G8473T100,99917377
SYK,Stryker,,310764,863667101,377238396
SIVB,SVB Financial,,719739,78486Q101,57904474
SYF,Synchrony,,1601712,87165B103,550958068
SNPS,Synopsys,,883241,871607107,152853597
SYY,Sysco,,96021,871829107,512475321
TMUS,T-Mobile,,1283699,872590104,1248719002
TROW,T. Rowe Price,,1113169,74144T108,225375784
TTWO,Take-Two Interactive,,946581,874054109,115604422
TPR,Tapestry,,1116132,876030107,276725700
TGT,Target,,27419,87612E106,484120312
TEL,TE Connectivity,,1385157,H84989104,326896126
TDY,Teledyne,,1094285,879360105,46640836
TFX,Teleflex,,96943,879369106,46831950
TER,Teradyne,,97210,880770102,163718321
TSLA,Tesla,,1318605,88160R101,1000819871
TXN,Texas Instruments,,97476,882508104,923460876
TXT,Textron,,217346,883203101,221078007
TMO,Thermo Fisher Scientific,,97745,883556102,394027344
TJX,TJX Companies,,109198,872540109,1198292690
TSCO,Tractor Supply,,916365,892356106,113952969
TT,Trane Technologies,,1466258,G8994E103,237557497
TDG,TransDigm,,1260221,893641100,55199659
TRV,Travelers,,86312,89417E109,246583007
TRMB,Trimble,,864749,896239100,251235124
TFC,Truist,,92230,89832Q109,1334890863
TWTR,Twitter,,1418091,90184L102,799194531
TYL,Tyler Technologies,,860731,902252105,40932508
TSN,Tyson,a,100493,902494103,294782526
USB,U.S. Bank,,36104,902973304,1482736821
UDR,UDR,,74208,902653104,305660805
ULTA,Ulta Beauty,,1403568,90384S303,54267938
UA,Under Armour,c,1336917,904311206,250293201
UAA,Under Armour,a,1336917,904311107,188645435
UNP,Union Pacific,,100885,907818108,644501587
UAL,United Airlines,,100517,910047109,323774942
UPS,United Parcel Service,b,1090727,911312106,728927170
URI,United Rentals,,1067701,911363109,72393207
UNH,UnitedHealth Group,,731766,91324P102,942202716
UHS,Universal Health Services,b,352915,913903100,74078127
VLO,Valero,,1035002,91913Y100,408832535
VTR,Ventas,,740260,92276F100,391882454
VRSN,Verisign,,1014473,92343E102,111265252
VRSK,Verisk,,1442145,92345Y106,161223713
VZ,Verizon,,732712,92343V104,4140163375
VRTX,Vertex,,875320,92532F100,255836567
VFC,VF Corporation,,103379,918204108,392733339
VTRS,Viatris,,1792044,92556V106,1209353817
V,Visa,a,1403161,92826C839,1676569990
VNO,Vornado Realty Trust,,899689,929042109,191679677
VMC,Vulcan Materials,,1396009,929160109,132698264
WAB,Wabtec,,943452,929740108,187380390
WBA,Walgreens Boots Alliance,,1618921,931427108,865605563
WMT,Walmart,,104169,931142103,2783787133
WM,Waste Management,,823768,94106L109,418989077
WAT,Waters,,1000697,941848103,61144114
WEC,WEC Energy Group,,783325,92939U106,315434531
WFC,Wells Fargo,,72971,949746101,4015125277
WELL,Welltower,,766704,95040Q104,431383194
WST,West Pharmaceutical Services,,105770,955306105,74058704
WDC,Western Digital,,106040,958102105,310448677
WRK,WestRock,,1732845,96145D105,265707911
WY,Weyerhaeuser,,106535,962166104,749256142
WHR,Whirlpool,,106640,963320106,61087771
WMB,Williams,,107263,969457100,1215007182
WTW,Willis Towers Watson,,1140536,G96629103,125951742
WYNN,Wynn Resorts,,1174922,983134107,115661971
XEL,Xcel Energy,,72903,98389B100,538608374
XLNX,Xilinx,,743988,983919101,247807932
XYL,Xylem,,1524472,98419M100,180271773
YUM,Yum! Brands,,1041061,988498101,293934094
ZBRA,Zebra,a,877212,989207105,53430060
ZBH,Zimmer Biomet,,1136869,98956P102,208886727
ZION,Zions Bancorp,,109380,989701107,158311924
ZTS,Zoetis,,1555280,98978V103,473395614
