Symbol,Name,Class,CIK,CUSIP,shares_outstanding
MMM,3M,,66740,88579Y101,595528125
AOS,A. O. Smith,,91142,831865209,145602856
ABT,Abbott,,1800,002824100,1744842326
ABBV,AbbVie,,1551152,00287Y109,1590819594
ACN,Accenture,a,1467373,G1151C101,648639124
ATVI,Activision Blizzard,,718877,00507V109,757506237
AYI,Acuity Brands,,1144215,00508Y102,42152908
ADM,ADM,,7084,039483102,559018153
ADBE,Adobe,,796343,00724F101,491736906
ADP,ADP,,8670,053015103,443337955
AAP,Advance Auto Parts,,1158449,00751Y106,73938898
AES,AES,,874761,00130H105,660426333
AET,Aetna,,1122304,00817Y108,326617886
AMG,Affiliated Managers Group,,1004434,008252108,55009981
AFL,Aflac,,4977,001055102,391088376
A,Agilent Technologies,,1090872,00846U101,322841600
AIG,AIG,,5272,026874784,901100176
APD,Air Products,,2969,009158106,218934041
AKAM,Akamai,,1086222,00971T101,169591661
ALK,Alaska Air Group,,766421,011659109,123013390
ALB,Albemarle,,915913,012653101,110572149
ARE,Alexandria,,1035443,015271109,100218666
ALXN,Alexion Pharmaceuticals,,899866,015351109,222290424
ALGN,Align,,1097149,016255101,80154860
ALLE,Allegion,,1579241,G0176J109,95126337
AGN,Allergan,,1578845,G0177J108,331254552
ADS,Alliance Data Systems,,1101215,018581108,55365808
LNT,Alliant Energy,,352541,018802108,231316797
ALL,Allstate,,899051,020002101,355776690
GOOGL,Alphabet,a,1652044,02079K305,298426853
GOOG,Alphabet,c,1652044,02079K107,349731542
MO,Altria,,764180,02209S103,1903351980
AMZN,Amazon,,1018724,023135106,483537027
AMD,AMD,,2488,007903107,967117440
AEE,Ameren,,1002910,023608102,242634798
AAL,American Airlines Group,,6201,02376R102,475300857
AEP,American Electric Power,,4904,025537101,492003753
AXP,American Express,,4962,025816109,862920834
AMT,American Tower,,1053507,03027X100,435610085
AWK,American Water,,1410636,030420103,178477846
AMP,Ameriprise Financial,,820027,03076C106,146917090
ABC,AmerisourceBergen,,1140859,03073E105,219117077
AME,Ametek,,1037868,031100100,231264337
AMGN,Amgen,,318154,031162100,722469041
APH,Amphenol,a,820313,032095101,305433455
APC,Anadarko Petroleum,,773910,032511107,537773811
ADI,Analog Devices,,6281,032654105,369386517
ANDV,Andeavor,,50104,03349M105,154773578
ANSS,Ansys,,1013462,03662Q105,84310966
ANTM,Anthem,,1156039,036752103,256076762
AON,Aon,a,315293,G0403H108,247759498
APA,Apache Corporation,,6769,037411105,381272102
AIV,Apartment Investment & Management,a,922864,03748R754,157178077
AAPL,Apple,,320193,037833100,5087265527
AMAT,Applied Materials,,6951,038222105,1053902073
APTV,Aptiv,,1521332,G6095L109,265839794
ARNC,Arconic,,4281,03965L100,482188154
AIZ,Assurant,,1267238,04621X108,52989369
T,AT&T,,732717,00206R102,6140782178
ADSK,Autodesk,,769397,052769106,219696539
AZO,AutoZone,,866787,053332102,27272275
AVB,AvalonBay Communities,,915912,053484101,138092847
AVY,Avery Dennison,,8818,053611109,87961216
BKR,Baker Hughes,a,1701605,05722G100,424562124
BLL,Ball,,9389,058498106,350262649
BAC,Bank of America,,70858,060505104,10328364223
BBWI,Bath & Body Works,,701985,070830104,281170020
BAX,Baxter,,10456,071813109,541703184
BDX,Becton Dickinson,,10795,075887109,265615190
BRK.B,Berkshire Hathaway,b,1067983,084670702,1341288502
BBY,Best Buy,,764478,086516101,289784241
BIIB,Biogen,,875045,09062X103,211539061
BLK,BlackRock,,1364742,09247X101,160584264
BK,BNY Mellon,,1390777,064058100,1013462550
BA,Boeing,,12927,097023105,590874529
BKNG,Booking Holdings,,1075531,09857L108,48509915
BWA,BorgWarner,,908255,099724106,210643490
BXP,Boston Properties,,1037540,101121101,154331247
BSX,Boston Scientific,,885725,101137107,1374314177
BHF,Brighthouse Financial,,1685040,10922N103,119773106
BMY,Bristol Myers Squibb,,14272,110122108,1633678206
AVGO,Broadcom,,1649338,Y09827109,409881119
BF.B,Brown–Forman,b,14693,115637209,247460125
CHRW,C.H. Robinson,,1043277,12541W209,139577046
CA,CA Technologies,,356028,12673P105,417341521
CDNS,Cadence,,813672,127387108,282727611
CPB,Campbell's,,16732,134429109,300615992
COF,Capital One,,927628,14040H105,485750423
CAH,Cardinal Health,,721371,14149Y108,316570005
KMX,CarMax,,1170010,143130102,180824309
CCL,Carnival,,815097,143658300,534085491
CAT,Caterpillar,,18230,149123101,597596509
CBOE,Cboe,,1374310,12503M108,113035648
CBRE,CBRE,a,1138118,12504L109,339487160
CBS,CBS Corp.,b,813828,124857202,352522832
CELG,Celgene,,816284,151020104,763889382
CNC,Centene,,1071739,15135B101,173141665
CNP,CenterPoint Energy,,1130310,15189T107,431042471
CERN,Cerner,,804753,156782104,332539988
CF,CF Industries,,1324404,125269100,233280918
SCHW,Charles Schwab,,316709,808513105,1344422325
CHTR,Charter Communications,a,1091667,16119P108,238615889
CVX,Chevron,,93410,166764100,1906707400
CMG,Chipotle Mexican Grill,,1058090,169656105,28035783
CB,Chubb,,896159,H1467J104,464141273
CHD,Church & Dwight,,313927,171340102,246720213
CI,CIGNA Corp.,,701221,125509109,244016902
XEC,Cimarex Energy,,1168054,171798101,95376479
CINF,Cincinnati Financial,,20286,172062101,164023205
CTAS,Cintas,,723254,172908105,106486794
CSCO,Cisco,,858877,17275R102,4882648416
C,Citigroup,,831001,172967424,2589301195
CFG,Citizens,,759944,174610105,488998892
CTXS,Citrix,,877890,177376100,141822276
CLX,Clorox,,21076,189054109,129303895
CME,CME Group,a,1156375,12572Q105,340352392
CMS,CMS Energy,,811156,125896100,282328003
KO,Coca-Cola,,21344,191216100,4263738581
CTSH,Cognizant,a,1058290,192446102,588768769
CL,Colgate-Palmolive,,21665,194162103,876049594
CMCSA,Comcast,a,1166691,20030N101,4635381726
CMA,Comerica,,28412,200340107,173231548
ED,Con Edison,,1047862,209115104,310282888
CAG,Conagra Brands,,23217,205887102,397992693
CXO,Concho Resources,,1358071,20605P101,148904114
STZ,Constellation Brands,a,16918,21036P108,171390300
COO,CooperCompanies,,711404,216648402,48939060
CPRT,Copart,,900075,217204106,231554312
GLW,Corning,,24741,219350105,860828905
COST,Costco,,909832,22160K105,439048071
CTRA,Coterra,,858470,127097103,461498861
COTY,Coty,a,1024305,222070203,749729242
CCI,Crown Castle,,1051470,22822V101,406605273
CSRA,CSRA,,1646383,12650T104,163870510
CSX,CSX,,277948,126408103,888923755
CMI,Cummins,,26172,231021106,165761258
CVS,CVS Health,,64803,126650100,1013907117
DHI,D.R. Horton,,882184,23331A109,375634004
DHR,Danaher,,313616,235851102,696903635
DRI,Darden,,940944,237194105,123576432
DVA,DaVita,,927066,23918K108,182467415
DE,Deere & Co.,,315189,244199105,323201539
DAL,Delta Air Lines,,27904,247361702,708489886
XRAY,Dentsply Sirona,,818479,24906P109,228555030
DVN,Devon,,1090012,25179M103,525891071
DLR,Digital Realty,,1297996,253868103,205591665
DFS,Discover,,1393612,254709108,358452766
DISCK,Discovery,c,1437107,25470F302,219224571
DISCA,Discovery,a,1437107,25470F104,154889675
DISH,Dish,a,1001082,25470M109,227992924
DG,Dollar General,,29534,256677105,270784133
DLTR,Dollar Tree,,935703,256746108,237187354
D,Dominion Energy,,715957,25746U109,648518585
DOV,Dover,,29905,260003108,154772545
DPS,Dr Pepper Snapple Group,,1418135,26138E109,180039402
DTE,DTE,,936340,233331107,179387086
DUK,Duke Energy,,1326160,26441C204,700062214
DRE,Duke Realty,,783280,264411505,356641002
DWDP,DuPont,,1666700,26078J100,2332838011
DXC,DXC Technology,,1688568,23355L106,285581933
ETFC,E-Trade,,1015780,269246401,267812307
EMN,Eastman,,915389,277432100,142975023
ETN,Eaton,,1551182,G29183103,440304065
EBAY,eBay,,1065088,278642103,1021362949
ECL,Ecolab,,31462,278865100,288872974
EIX,Edison International,,827052,281020107,325811206
EW,Edwards Lifesciences,,1099800,28176E108,210534486
EA,Electronic Arts,,712515,285512109,307170533
EMR,Emerson,,32604,291011104,637266192
ETR,Entergy,,65984,29364G103,180589869
EVHC,Envision Healthcare,,1678531,29414D100,120954897
EOG,EOG Resources,,821189,26875P101,578459162
EQT,EQT,,33213,26884L109,240764382
EFX,Equifax,,33185,294429105,120108395
EQIX,Equinix,,1101239,29444U700,78744084
EQR,Equity Residential,,906107,29476L107,367876091
ESS,Essex,,920522,297178105,66038878
EL,Estée Lauder Companies,a,1001250,518439104,224633121
RE,Everest,,1095073,G3223R108,40922240
ES,Eversource,,72741,30040W108,316885808
EXC,Exelon,,1109357,30161N101,964983997
EXPE,Expedia Group,,1324424,30212P303,139203528
EXPD,Expeditors,,746515,302130109,177095571
ESRX,Express Scripts,,1532063,30219G108,564874089
EXR,Extra Space Storage,,1289490,30225T102,126023586
XOM,ExxonMobil,,34088,30231G102,4237369519
FFIV,F5,,1048695,315616102,62091392
FAST,Fastenal,,815556,311900104,287561627
FRT,Federal Realty,,34903,313745101,72944319
FDX,FedEx,,1048911,31428X106,267800689
FITB,Fifth Third Bank,,35527,316773100,698167162
FE,FirstEnergy,,1031296,337932107,467594557
FIS,FIS,,1136893,31620M106,332114700
FISV,Fiserv,,798354,337738108,207368867
FLIR,FLIR Systems,,354908,302445101,138780950
FLS,Flowserve,,30625,34354P105,130726512
FLR,Fluor Corporation,,1124198,343412102,139893573
FMC,FMC,,37785,302491303,134329808
FL,Foot Locker,,850209,344849104,120293853
F,Ford,,37996,345370860,3902176668
FTV,Fortive,,1659166,34959J108,347829622
FBHS,Fortune Brands,,1519751,34964C106,151901968
BEN,Franklin Templeton,,38777,354613101,552333398
FCX,Freeport-McMoRan,,831259,35671D857,1447756369
AJG,Gallagher,,354190,363576109,181262878
GPS,Gap,,39911,364760108,389031690
GRMN,Garmin,,1121788,H2906T109,198077418
IT,Gartner,,749251,366651107,90770381
GE,GE,,40545,369604301,8679846634
GD,General Dynamics,,40533,369550108,297335541
GIS,General Mills,,40704,370334104,569277412
GPC,Genuine Parts,,40987,372460105,146694531
GGP,GGP,,1496048,36174X101,951944806
GILD,Gilead,,882095,375558103,1308343081
GPN,Global Payments,,1123360,37940X102,159176185
GL,Globe Life,,320335,37959E102,114688523
GM,GM,,1467858,37045V100,1407878868
GS,Goldman Sachs,,886982,38141G104,378903932
GWW,Grainger,,277135,384802104,56333775
HRB,H&R Block,,12659,093671105,209113351
HAL,Halliburton,,45012,406216101,874142751
HBI,Hanesbrands,,1359841,410345102,361749148
HOG,Harley-Davidson,,793952,412822108,168372563
HRS,Harris Corporation,,202058,413875105,118869475
HIG,Hartford (The),,874766,416515104,356865359
HAS,Hasbro,,46080,418056107,124315422
HCA,HCA Healthcare,,860730,40412C101,351346760
PEAK,Healthpeak,,765880,42250P103,469331807
HP,Helmerich & Payne,,46765,423452101,108764854
HSIC,Henry Schein,,1000228,806407102,155126246
HSY,Hershey's,,47111,427866108,149947578
HES,Hess,,4447,42809H107,315082967
HPE,Hewlett Packard Enterprise,,1645590,42824C109,1580325295
HLT,Hilton,,1585689,43300A203,317464953
HOLX,Hologic,,859737,436440101,276152141
HD,Home Depot,,354950,437076102,1163285299
HON,Honeywell,,773840,438516106,754249151
HRL,Hormel,,48465,440452100,529569147
HST,Host Hotels & Resorts,,1070750,44107P104,740843535
HPQ,HP,,47217,40434L105,1643301076
HUM,Humana,,49071,444859102,139030867
HII,Huntington Ingalls Industries,,1501585,446413106,44982691
HBAN,Huntington National Bank,,49196,446150104,1074347236
IBM,IBM,,51143,459200101,922603976
IDXX,Idexx Laboratories,,874716,45168D104,87157507
INFO,IHS Markit,,1598014,G47567105,397823229
ITW,Illinois Tool Works,,49826,452308109,341819739
ILMN,Illumina,,1110803,452327109,146633928
INCY,Incyte,,879169,45337C102,211427426
INTC,Intel,,50863,458140100,4671600000
ICE,Intercontinental Exchange,,1571949,45866F104,583336360
IFF,International Flavors & Fragrances,,51253,459506101,78948054
IP,International Paper,,51434,460146103,412935251
IPG,Interpublic Group,,51644,460690100,386043121
INTU,Intuit,,896878,461202103,255875524
ISRG,Intuitive Surgical,,1035267,46120E602,112245170
IVZ,Invesco,,914208,G491BT108,407129664
IPGP,IPG Photonics,,1111928,44980X109,53845736
IQV,IQVIA,,1478242,46266C105,209454406
IRM,Iron Mountain,,1020569,46284V101,278585186
JBHT,J.B. Hunt,,728535,445658107,109753632
J,Jacobs,,52988,469814107,134602950
JEF,Jefferies Financial Group,,96223,47233W109,356261211
JNJ,Johnson & Johnson,,200406,478160104,2684452337
JCI,Johnson Controls,,833444,G51502105,926094390
JPM,JPMorgan Chase,,19617,46625H100,3441784074
JNPR,Juniper Networks,,1043604,48203R104,358006508
KSU,Kansas City Southern,,54480,485170302,103153505
K,Kellogg's,,55067,487836108,345663776
KEY,KeyCorp,,91576,493267108,1067457632
KMB,Kimberly-Clark,,55785,494368103,351027426
KIM,Kimco Realty,,879101,49446R109,425536547
KMI,Kinder Morgan,,1506307,49456B101,2215771287
KLAC,KLA,,319201,482480100,156632664
KSS,Kohl's,,885639,500255104,168079318
KHC,Kraft Heinz,,1637459,500754106,1218668268
KR,Kroger,,56873,501044101,877883346
LLL,L3 Technologies,,1039101,502413107,78190956
LH,LabCorp,,920148,50540R409,101853043
LRCX,Lam Research,,707549,512807108,162685523
LEG,Leggett & Platt,,58492,524660107,132067298
LEN,Lennar,a,920760,526057104,203952337
LLY,Lilly,,59478,532457108,1097815720
LNC,Lincoln Financial,,59558,534187109,218502639
LKQ,LKQ Corporation,,1065696,501889208,309360725
LMT,Lockheed Martin,,936468,539830109,285824071
L,Loews Corporation,,60086,540424108,331352889
LOW,Lowe's,,60667,548661107,828778943
LUMN,Lumen,,18926,550241103,1069472996
LYB,LyondellBasell,,1489393,N53745100,394514358
MTB,M&T Bank,,36270,55261F104,150294630
MAC,Macerich,,912242,554382101,140814279
M,Macy's,,794367,55616P104,304836450
MRO,Marathon Oil,,101778,565849106,849715303
MPC,Marathon Petroleum,,1510295,56585A102,481353632
MAR,Marriott International,a,1048286,571903202,359890781
MMC,Marsh & McLennan,,62709,571748102,508813742
MLM,Martin Marietta,,916076,573284106,62824670
MAS,Masco,,62996,574599106,313696876
MA,Mastercard,a,1141391,57636Q104,1039704981
MAT,Mattel,,63276,577081102,343849340
MKC,McCormick,nonvoting,63754,579780206,121101001
MCD,McDonald's,,63908,580135101,795197121
MCK,McKesson,,927653,58155Q103,206362540
MDT,Medtronic,,1613103,G5960L103,1354150322
MRK,Merck,,310158,58933Y105,2706015313
FB,Meta,a,1326801,30303M102,2392254515
MET,MetLife,,1099219,59156R108,1043234938
MTD,Mettler Toledo,,1037646,592688105,25503559
MGM,MGM Resorts,,789570,552953101,566251784
KORS,Michael Kors,,1530721,G60754101,152144189
MCHP,Microchip,,827054,595017104,234197169
MU,Micron,,723125,595112103,1156883583
MSFT,Microsoft,,789019,594918104,7703869670
MAA,Mid-America Apartments,,912595,59522J103,113662418
MHK,Mohawk Industries,,851968,608190104,74382561
TAP,Molson Coors,b,24545,60871R209,195357464
MDLZ,Mondelez International,a,1103982,609207105,1489777899
MON,Monsanto,,1110783,61166W101,440829555
MNST,Monster Beverage,,865752,61174X109,565418016
MCO,Moody's,,1059556,615369105,191001086
MS,Morgan Stanley,,895421,617446448,1797429961
MOS,Mosaic,,1285785,61945C103,370214083
MSI,Motorola Solutions,,68505,620076307,161495824
MYL,Mylan N.V.,,1623613,N59465109,525415671
NDAQ,Nasdaq,,1120193,631103108,166409170
NAVI,Navient,,1593538,63938C108,263290588
NKTR,Nektar Therapeutics,,906709,640268108,159257012
NTAP,NetApp,,1002047,64110D104,267351035
NFLX,Netflix,,1065280,64110L106,433677943
NWL,Newell Brands,,814453,651229106,486904347
NFX,Newfield Exploration,,912750,651290108,199678911
NEM,Newmont,,1164727,651639106,533420203
NWS,News Corp,b,1564708,65249B208,199630240
NWSA,News Corp,a,1564708,65249B109,383064927
NEE,NextEra Energy,,753308,65339F101,470690822
NLSN,Nielsen,,1492633,G6518L108,356520252
NKE,Nike,b,320187,654106103,1298019864
NI,NiSource,,1111711,65473P105,337168381
NBL,Noble Energy,,72207,655044105,486899693
JWN,Nordstrom,,702165,655664100,284556988
NSC,Norfolk Southern,,702165,655844108,284556988
NTRS,Northern Trust,,73124,665859104,226610801
NOC,Northrop Grumman,,1133421,666807102,174085155
NLOK,NortonLifeLock,,849399,668771108,621076803
NCLH,Norwegian Cruise Line Holdings,,1513761,G66721104,228574376
NOV,Nov,,1021860,62955J103,380102881
NRG,NRG Energy,,1013871,629377508,317291441
NUE,Nucor,,73309,670346105,317929187
NVDA,Nvidia,,1045810,67066G104,605216822
ORLY,O'Reilly Automotive,,898173,67103H107,84288727
OXY,Occidental Petroleum,,797468,674599105,765173839
OMC,Omnicom Group,,29989,681919106,230344046
OKE,Oneok,,1039684,682680103,398595971
ORCL,Oracle,,1341439,68389X105,4128022308
PCAR,Paccar,,75362,693718108,351855673
PCG,Pacific Gas & Electric Company,,1004980,69331C108,514788786
PKG,Packaging Corporation of America,,75677,695156109,94350145
PH,Parker,,76334,701094104,133050473
PAYX,Paychex,,723531,704326107,359215430
PYPL,PayPal,,1633917,70450Y103,1200716450
PNR,Pentair,,77360,G7S00T104,181763624
PBCT,People's United Financial,,1378946,712704105,346729465
PEP,PepsiCo,,77476,713448108,1420551702
PKI,PerkinElmer,,31791,714046109,110368503
PRGO,Perrigo,,1585364,G97822103,140836281
PFE,Pfizer,,78003,717081103,5956712047
PM,Philip Morris International,,1413329,718172109,1553221158
PSX,Phillips 66,,1534701,718546104,502669052
PNW,Pinnacle West,,764622,723484101,111769783
PXD,Pioneer Natural Resources,,1038357,723787107,170242546
PNC,PNC Financial Services,,713676,693475105,473131799
PPG,PPG Industries,,79879,693506107,251076141
PPL,PPL,,922224,69351T106,692225963
PX,Praxair Inc.,,884905,74005P104,286920334
PFG,Principal,,1126328,74251V102,289350084
PG,Procter & Gamble,,80424,742718109,2521177123
PGR,Progressive,,80661,743315103,582108969
PLD,Prologis,,1045609,74340W103,532665200
PRU,Prudential,,1137774,744320102,422695652
PEG,PSEG,,788784,744573106,505265985
PSA,Public Storage,,1393311,74460D109,174130694
PHM,PulteGroup,,822416,745867101,288822999
PVH,PVH,,78239,693656100,76947340
QRVO,Qorvo,,1604778,74736K101,126671450
QCOM,Qualcomm,,804328,747525103,1478319784
PWR,Quanta,,1050915,74762E102,154210775
DGX,Quest Diagnostics,,1022079,74834L100,135828580
RL,Ralph Lauren,a,1037038,751212101,55403341
RRC,Range Resources,,315852,75281A109,248360377
RJF,Raymond James,,720005,754730109,145044324
RTN,Raytheon Company,,1047122,755111507,288734250
RTX,Raytheon Technologies,,101829,75513E101,799463921
O,Realty Income,,726728,756109104,283286485
RHT,Red Hat,,1087423,756577102,177010324
REG,Regency Centers,,910606,758849103,170461544
REGN,Regeneron,,872589,75886F107,105703805
RF,Regions,,1281761,7591EP100,1141268403
RSG,Republic Services,,1060391,760759100,332206857
RMD,ResMed,,943819,761152107,142717832
RHI,Robert Half,,315213,770323103,124640068
ROK,Rockwell Automation,,1024478,773903109,127796582
COL,Rockwell Collins,,1137411,774341101,163655195
ROP,Roper,,882835,776696106,102627481
ROST,Ross,,745732,778296103,380807855
RCL,Royal Caribbean Group,,884887,V7780T103,213891460
SPGI,S&P Global,,64040,78409V104,254203061
CRM,Salesforce,,1108524,79466L302,726900000
SBAC,SBA Communications,a,1034054,78410G104,116976627
SCG,SCANA,,754737,80589M102,142628102
SLB,Schlumberger,,87347,806857108,1383947220
STX,Seagate,,1137789,G7997R103,285999012
SEE,Sealed Air,,1012100,81211K100,172656822
SRE,Sempra Energy,,1032208,816851109,253518193
SHW,Sherwin-Williams,,89800,824348106,93868945
SPG,Simon,a,1063761,828806109,317863372
SWKS,Skyworks,,4127,83088M102,182709947
SLG,SL Green Realty,,1040971,78440X887,94333502
SJM,Smucker,,91419,832696405,113598322
SNA,Snap-on,,91440,833034101,56819634
SO,Southern Company,,92122,842587107,1006980479
LUV,Southwest Airlines,,92380,844741108,590003599
SWK,Stanley Black & Decker,,93556,854502101,153785859
SBUX,Starbucks,,829224,855244109,1411333333
STT,State Street,,93751,857477103,368760496
SRCL,Stericycle,,861878,858912108,85464122
SYK,Stryker,,310764,863667101,374536842
STI,SunTrust Banks,,750556,867914103,471737093
SIVB,SVB Financial,,719739,78486Q101,52827767
SYF,Synchrony,,1601712,87165B103,769475386
SNPS,Synopsys,,883241,871607107,148716684
SYY,Sysco,,96021,871829107,521742741
TROW,T. Rowe Price,,1113169,74144T108,243575614
TTWO,Take-Two Interactive,,946581,874054109,114278213
TPR,Tapestry,,1116132,876030107,284731949
TGT,Target,,27419,87612E106,541645233
TEL,TE Connectivity,,1385157,H84989104,351327730
FTI,TechnipFMC,,1681459,G87110105,464872826
TXN,Texas Instruments,,97476,882508104,984562297
TXT,Textron,,217346,883203101,262282529
GT,The Goodyear Tire & Rubber Company,,42582,382550101,241891354
DIS,The Walt Disney Company,,1001039,254687106,1506433594
TMO,Thermo Fisher Scientific,,97745,883556102,401564980
TIF,Tiffany & Co,,98246,886547108,124332455
TWX,Time Warner,,1105705,887317303,779356771
TJX,TJX Companies,,109198,872540109,629687441
TSCO,Tractor Supply,,916365,892356106,125254588
TT,Trane Technologies,,1466258,G8994E103,249882926
TDG,TransDigm,,1260221,893641100,52111806
TRV,Travelers,,86312,89417E109,272229550
TRIP,TripAdvisor,,1526520,896945201,126141069
TFC,Truist,,92230,89832Q109,781056877
TSS,TSYS,,721683,891906109,182668076
FOXA,Twenty-First Century Fox,a,1308161,90130A101,1054008837
FOX,Twenty-First Century Fox,b,1308161,90130A200,798520953
TSN,Tyson,a,100493,902494103,297503193
USB,U.S. Bank,,36104,902973304,1654541497
UDR,UDR,,74208,902653104,267982129
ULTA,Ulta Beauty,,1403568,90384S303,60889316
UAA,Under Armour,a,1336917,904311107,185228029
UA,Under Armour,c,1336917,904311206,222329433
UNP,Union Pacific,,100885,907818108,781851564
UAL,United Airlines,,100517,910047109,288951641
UPS,United Parcel Service,b,1090727,911312106,687805365
URI,United Rentals,,1067701,911363109,84462147
UNH,UnitedHealth Group,,731766,91324P102,968151451
UHS,Universal Health Services,b,352915,913903100,87213705
UNM,Unum,,5513,91529Y106,222627950
VLO,Valero,,1035002,91913Y100,434708466
VAR,Varian Medical Systems,,203527,92220P105,91429799
VTR,Ventas,,740260,92276F100,356186884
VRSN,Verisign,,1014473,92343E102,97651177
VRSK,Verisk,,1442145,92345Y106,164879717
VZ,Verizon,,732712,92343V104,4079474363
VRTX,Vertex,,875320,92532F100,253584679
VFC,VF Corporation,,103379,918204108,396216165
VIAB,Viacom,b,1339947,92553P201,352881700
V,Visa,a,1403161,92826C839,1806425151
VNO,Vornado Realty Trust,,899689,929042109,189982705
VMC,Vulcan Materials,,1396009,929160109,132397564
WBA,Walgreens Boots Alliance,,1618921,931427108,991675509
WMT,Walmart,,104169,931142103,2959337550
WM,Waste Management,,823768,94106L109,433867549
WAT,Waters,,1000697,941848103,79105270
WEC,WEC Energy Group,,783325,92939U106,315552577
WFC,Wells Fargo,,72971,949746101,4898248751
WELL,Welltower,,766704,95040Q104,371212938
WDC,Western Digital,,106040,958102105,296956078
WU,Western Union,,1365135,959802109,459295946
WRK,WestRock,,1636023,96145D105,254962365
WY,Weyerhaeuser,,106535,962166104,755650872
WHR,Whirlpool,,106640,963320106,71118140
WMB,Williams,,107263,969457100,827062870
WTW,Willis Towers Watson,,1140536,G96629103,132130609
WYN,Wyndham Worldwide,,1361658,98310W108,100140456
WYNN,Wynn Resorts,,1174922,983134107,102914497
XEL,Xcel Energy,,72903,98389B100,507935510
XRX,Xerox,,108772,98421M106,254650744
XLNX,Xilinx,,743988,983919101,254263462
XL,XL Group,,875159,G98294104,256489117
XYL,Xylem,,1524472,98419M100,179767453
YUM,Yum! Brands,,1041061,988498101,334476019
ZBH,Zimmer Biomet,,1136869,98956P102,202861601
ZION,Zions Bancorp,,109380,989701107,197825272
ZTS,Zoetis,,1555280,98978V103,486040654
