period,cik,class,shares_outstanding
2017-09-30,1001039,,1525159165
2017-12-31,1001039,,1506433594
2018-03-31,1001039,,1495292784
2018-06-30,1001039,,1488432309
2018-09-30,1001039,,1488045202
2018-12-31,1001039,,1489928973
