period,cik,class,shares_outstanding
2017-09-30,1013871,,316578805
2017-12-31,1013871,,317291441
2018-03-31,1013871,,314932836
2018-06-30,1013871,,303555204
2018-09-30,1013871,,290076755
2018-12-31,1013871,,283321445
2019-03-31,1013871,,271975443
2019-06-30,1013871,,258568195
2019-09-30,1013871,,252118939
2019-12-31,1013871,,249608974
2020-03-31,1013871,,246024890
2020-06-30,1013871,,244116639
2020-09-30,1013871,,244187092
2020-12-31,1013871,,244442291
2021-03-31,1013871,,244716931
2021-06-30,1013871,,244767562
2021-09-30,1013871,,244814214
2021-12-31,1013871,,243495945
