period,cik,class,shares_outstanding
2017-09-30,1018724,,481563908
2017-12-31,1018724,,483537027
2018-03-31,1018724,,484973633
2018-06-30,1018724,,487216228
2018-09-30,1018724,,488725837
2018-12-31,1018724,,490655723
2019-03-31,1018724,,492089871
2019-06-30,1018724,,494196275
2019-09-30,1018724,,495584027
2019-12-31,1018724,,497337952
2020-03-31,1018724,,498531982
2020-06-30,1018724,,500355439
2020-09-30,1018724,,501542900
2020-12-31,1018724,,503146229
2021-03-31,1018724,,504140243
2021-06-30,1018724,,505928770
2021-09-30,1018724,,506984443
2021-12-31,1018724,,508376927
