period,cik,class,shares_outstanding
2017-09-30,1035002,,439001395
2017-12-31,1035002,,434708466
2018-03-31,1035002,,431773283
2018-06-30,1035002,,428659032
2018-09-30,1035002,,425382949
2018-12-31,1035002,,419942749
2019-03-31,1035002,,417371384
2019-06-30,1035002,,415390574
2019-09-30,1035002,,411902968
2019-12-31,1035002,,409784991
2020-03-31,1035002,,408128708
2020-06-30,1035002,,407743732
2020-09-30,1035002,,407781147
2020-12-31,1035002,,408231316
2021-03-31,1035002,,408685013
2021-06-30,1035002,,408806744
2021-09-30,1035002,,408832535
2021-12-31,1035002,,409106985
