period,cik,class,shares_outstanding
2017-09-30,1037868,,231028792
2017-12-31,1037868,,231264337
2018-03-31,1037868,,231503361
2018-06-30,1037868,,231806261
2018-09-30,1037868,,232054134
2018-12-31,1037868,,228759304
2019-03-31,1037868,,227621438
2019-06-30,1037868,,228201558
2019-09-30,1037868,,228515666
2019-12-31,1037868,,228943255
2020-03-31,1037868,,229340428
2020-06-30,1037868,,229575916
2020-09-30,1037868,,229950272
2020-12-31,1037868,,230411125
2021-03-31,1037868,,230798144
2021-06-30,1037868,,231108039
2021-09-30,1037868,,231285754
2021-12-31,1037868,,231572985
