period,cik,class,shares_outstanding
2017-09-30,106640,,72120479
2017-12-31,106640,,71118140
2018-03-31,106640,,70762655
2018-06-30,106640,,66001251
2018-09-30,106640,,63974203
2018-12-31,106640,,63654897
2019-03-31,106640,,63405098
2019-06-30,106640,,63486058
2019-09-30,106640,,63268182
2019-12-31,106640,,62926506
2020-03-31,106640,,62363535
2020-06-30,106640,,62265802
2020-09-30,106640,,62499602
2020-12-31,106640,,62836596
2021-03-31,106640,,62710909
2021-06-30,106640,,62688784
2021-09-30,106640,,61087771
2021-12-31,106640,,59296456
