period,cik,class,shares_outstanding
2017-12-31,1111928,,53845736
2018-03-31,1111928,,53867439
2018-06-30,1111928,,53733642
2018-09-30,1111928,,53540121
2018-12-31,1111928,,53175374
2019-03-31,1111928,,53047870
2019-06-30,1111928,,53177107
2019-09-30,1111928,,53121588
2019-12-31,1111928,,53064229
2020-03-31,1111928,,53042507
2020-06-30,1111928,,53168733
2020-09-30,1111928,,53284332
2020-12-31,1111928,,53424605
2021-03-31,1111928,,53557317
2021-06-30,1111928,,53528359
2021-09-30,1111928,,53379134
2021-12-31,1111928,,53110435
