period,cik,class,shares_outstanding
2019-09-30,11544,,183489774
2019-12-31,11544,,183541048
2020-03-31,11544,,180746801
2020-06-30,11544,,178243975
2020-09-30,11544,,178151718
2020-12-31,11544,,177710344
2021-03-31,11544,,177373270
2021-06-30,11544,,177481768
2021-09-30,11544,,176920809
2021-12-31,11544,,176725081
