period,cik,class,shares_outstanding
2019-06-30,1283699,,854419754
2019-09-30,1283699,,855286346
2019-12-31,1283699,,856498269
2020-03-31,1283699,,1105277377
2020-06-30,1283699,,1237055343
2020-09-30,1283699,,1239996851
2020-12-31,1283699,,1242083647
2021-03-31,1283699,,1245178392
2021-06-30,1283699,,1247613047
2021-09-30,1283699,,1248719002
2021-12-31,1283699,,1249200433
