period,cik,class,shares_outstanding
2020-09-30,1318605,,774071177
2020-12-31,1318605,,956060797
2021-03-31,1318605,,962362185
2021-06-30,1318605,,983343980
2021-09-30,1318605,,1000819871
2021-12-31,1318605,,1024333412
