period,cik,class,shares_outstanding
2017-09-30,1359841,,364551750
2017-12-31,1359841,,361749148
2018-03-31,1359841,,360327926
2018-06-30,1359841,,360465154
2018-09-30,1359841,,360665822
2018-12-31,1359841,,361191221
2019-03-31,1359841,,361455901
2019-06-30,1359841,,361521828
2019-09-30,1359841,,361653167
2019-12-31,1359841,,362208039
2020-03-31,1359841,,352327109
2020-06-30,1359841,,348126306
2020-09-30,1359841,,348272430
2020-12-31,1359841,,348646387
2021-03-31,1359841,,348995024
2021-06-30,1359841,,349138323
