period,cik,class,shares_outstanding
2017-09-30,1410636,,178347785
2017-12-31,1410636,,178477846
2018-03-31,1410636,,178242297
2018-06-30,1410636,,179766961
2018-09-30,1410636,,180568338
2018-12-31,1410636,,180688897
2019-03-31,1410636,,180605310
2019-06-30,1410636,,180614432
2019-09-30,1410636,,180742243
2019-12-31,1410636,,180894944
2020-03-31,1410636,,181003515
2020-06-30,1410636,,181141060
2020-09-30,1410636,,181249861
2020-12-31,1410636,,181364428
2021-03-31,1410636,,181456683
2021-06-30,1410636,,181487558
2021-09-30,1410636,,181524956
2021-12-31,1410636,,181650800
