period,cik,class,shares_outstanding
2019-03-31,1739940,,379587664
2019-06-30,1739940,,377934261
2019-09-30,1739940,,374153005
2019-12-31,1739940,,372061045
2020-03-31,1739940,,369765491
2020-06-30,1739940,,367819882
2020-09-30,1739940,,362577240
2020-12-31,1739940,,354663302
2021-03-31,1739940,,346175905
2021-06-30,1739940,,341142465
2021-09-30,1739940,,334289235
2021-12-31,1739940,,324519042
