period,cik,class,shares_outstanding
2017-09-30,202058,,119450474
2017-12-31,202058,,118869475
2018-03-31,202058,,118729187
2018-06-30,202058,,117984572
2018-09-30,202058,,117538915
2018-12-31,202058,,117784446
2019-03-31,202058,,118037827
2019-06-30,202058,,178214312
2019-09-30,202058,,221887809
2019-12-31,202058,,218881173
2020-03-31,202058,,216391409
2020-06-30,202058,,216081089
2020-09-30,202058,,212184389
2020-12-31,202058,,207781603
2021-03-31,202058,,205270183
2021-06-30,202058,,202319988
2021-09-30,202058,,197517358
2021-12-31,202058,,194393449
