period,cik,class,shares_outstanding
2017-09-30,315213,,125640053
2017-12-31,315213,,124640068
2018-03-31,315213,,123806034
2018-06-30,315213,,122833840
2018-09-30,315213,,121490936
2018-12-31,315213,,119701980
2019-03-31,315213,,118738999
2019-06-30,315213,,117907628
2019-09-30,315213,,116605959
2019-12-31,315213,,115459950
2020-03-31,315213,,114780719
2020-06-30,315213,,114623692
2020-09-30,315213,,113990774
2020-12-31,315213,,113347340
2021-03-31,315213,,112786426
2021-06-30,315213,,112182644
2021-09-30,315213,,111340693
2021-12-31,315213,,110853588
