period,cik,class,shares_outstanding
2017-09-30,36270,,151008081
2017-12-31,36270,,150294630
2018-03-31,36270,,146956737
2018-06-30,36270,,144250555
2018-09-30,36270,,141502084
2018-12-31,36270,,139163292
2019-03-31,36270,,137226999
2019-06-30,36270,,134651840
2019-09-30,36270,,132553682
2019-12-31,36270,,130966529
2020-03-31,36270,,129018037
2020-06-30,36270,,128277479
2020-09-30,36270,,128288332
2020-12-31,36270,,128479960
2021-03-31,36270,,128646124
2021-06-30,36270,,128669607
2021-09-30,36270,,128682344
2021-12-31,36270,,128891184
