period,cik,class,shares_outstanding
2017-09-30,65984,,179997011
2017-12-31,65984,,180589869
2018-03-31,65984,,180805079
2018-06-30,65984,,180844107
2018-09-30,65984,,181042325
2018-12-31,65984,,186645452
2019-03-31,65984,,189805955
2019-06-30,65984,,195732951
2019-09-30,65984,,199007358
2019-12-31,65984,,199509466
2020-03-31,65984,,200012033
2020-06-30,65984,,200194144
2020-09-30,65984,,200225300
2020-12-31,65984,,200398410
2021-03-31,65984,,200598645
2021-06-30,65984,,200854195
2021-09-30,65984,,200972482
2021-12-31,65984,,202331027
