period,cik,class,shares_outstanding
2017-09-30,79879,,254497708
2017-12-31,79879,,251076141
2018-03-31,79879,,246784104
2018-06-30,79879,,242066635
2018-09-30,79879,,239908016
2018-12-31,79879,,236935931
2019-03-31,79879,,236057234
2019-06-30,79879,,236290329
2019-09-30,79879,,236461359
2019-12-31,79879,,235939936
2020-03-31,79879,,235920636
2020-06-30,79879,,235976770
2020-09-30,79879,,236201949
2020-12-31,79879,,236636806
2021-03-31,79879,,237086054
2021-06-30,79879,,237353663
2021-09-30,79879,,237400371
2021-12-31,79879,,236363674
