period,cik,class,shares_outstanding
2017-12-31,804328,,1478319784
2018-03-31,804328,,1481976879
2018-06-30,804328,,1472674451
2018-09-30,804328,,1302706326
2018-12-31,804328,,1210946763
2019-03-31,804328,,1213920937
2019-06-30,804328,,1215671308
2019-09-30,804328,,1168959792
2019-12-31,804328,,1142582058
2020-03-31,804328,,1130966255
2020-06-30,804328,,1127238823
2020-09-30,804328,,1130051422
2020-12-31,804328,,1134186813
2021-03-31,804328,,1130571428
2021-06-30,804328,,1128000000
2021-09-30,804328,,1122693877
2021-12-31,804328,,1124538461
