period,cik,class,shares_outstanding
2017-09-30,816284,,786048949
2017-12-31,816284,,763889382
2018-03-31,816284,,733031661
2018-06-30,816284,,709023872
2018-09-30,816284,,700290926
2018-12-31,816284,,700899076
2019-03-31,816284,,704073046
2019-06-30,816284,,707751717
2019-09-30,816284,,710775568
