period,cik,class,shares_outstanding
2017-09-30,858877,,4948885530
2017-12-31,858877,,4882648416
2018-03-31,858877,,4763349262
2018-06-30,858877,,4649518537
2018-09-30,858877,,4542573612
2018-12-31,858877,,4449510843
2019-03-31,858877,,4343379725
2019-06-30,858877,,4266020911
2019-09-30,858877,,4244095101
2019-12-31,858877,,4241563769
2020-03-31,858877,,4231486071
2020-06-30,858877,,4227125809
2020-09-30,858877,,4230094393
2020-12-31,858877,,4223547532
2021-03-31,858877,,4218149806
2021-06-30,858877,,4215537197
2021-09-30,858877,,4217691661
2021-12-31,858877,,4188327221
