period,cik,class,shares_outstanding
2017-09-30,8818,,88148467
2017-12-31,8818,,87961216
2018-03-31,8818,,87998040
2018-06-30,8818,,87613344
2018-09-30,8818,,86928030
2018-12-31,8818,,85242286
2019-03-31,8818,,84222477
2019-06-30,8818,,84261509
2019-09-30,8818,,83707624
2019-12-31,8818,,83390732
2020-03-31,8818,,83322502
2020-06-30,8818,,83427263
2020-09-30,8818,,83429928
2020-12-31,8818,,83162231
2021-03-31,8818,,83020490
2021-06-30,8818,,82926855
2021-09-30,8818,,82825359
2021-12-31,8818,,82571475
