period,cik,class,shares_outstanding
2017-09-30,89800,,93512788
2017-12-31,89800,,93868945
2018-03-31,89800,,93553283
2018-06-30,89800,,93382831
2018-09-30,89800,,93623650
2018-12-31,89800,,92954509
2019-03-31,89800,,92323016
2019-06-30,89800,,92257005
2019-09-30,89800,,92308665
2019-12-31,89800,,92248916
2020-03-31,89800,,90823795
2020-06-30,89800,,91046914
2020-09-30,89800,,90826953
2020-12-31,89800,,89919953
2021-03-31,89800,,262960655
2021-06-30,89800,,263331540
2021-09-30,89800,,262208220
2021-12-31,89800,,260847900
