period,cik,class,shares_outstanding
2017-09-30,93751,,371921457
2017-12-31,93751,,368760496
2018-03-31,93751,,366190072
2018-06-30,93751,,365718832
2018-09-30,93751,,375463980
2018-12-31,93751,,378957950
2019-03-31,93751,,375037504
2019-06-30,93751,,372749392
2019-09-30,93751,,365985364
2019-12-31,93751,,357312288
2020-03-31,93751,,352666514
2020-06-30,93751,,352272937
2020-09-30,93751,,352697499
2020-12-31,93751,,352089758
2021-03-31,93751,,348846294
2021-06-30,93751,,344534251
2021-09-30,93751,,360523159
2021-12-31,93751,,365931209
