period,cik,class,shares_outstanding
2017-09-30,97745,,400875842
2017-12-31,97745,,401564980
2018-03-31,97745,,402313680
2018-06-30,97745,,402791053
2018-09-30,97745,,402576382
2018-12-31,97745,,399967743
2019-03-31,97745,,399981140
2019-06-30,97745,,400475744
2019-09-30,97745,,400974061
2019-12-31,97745,,399394846
2020-03-31,97745,,394965132
2020-06-30,97745,,395605791
2020-09-30,97745,,396277856
2020-12-31,97745,,394519598
2021-03-31,97745,,393082562
2021-06-30,97745,,393401711
2021-09-30,97745,,394027344
2021-12-31,97745,,392030529
