Date,Symbol (Added),Name (Added),Class (Added),CIK (Added),CUSIP (Added),Symbol (Removed),Name (Removed),Class (Removed),CIK (Removed),CUSIP (Removed),Reason
2022-03-02,MOH,Molina Healthcare,,1179929,60855R100,INFO,IHS Markit,,1598014,G47567105,S P 500 constituent S P Global Inc acquired IHS Markit 6 
2022-02-15,NDSN,Nordson,,72331,655663102,XLNX,Xilinx,,743988,983919101,S P 500 constituent Advanced Micro Devices acquired Xilinx 6
2022-02-03,,,,,,GPS,Gap,,39911,364760108,Market capitalization change 7
2022-02-02,CEG,Constellation Energy,,1868275,21037T109,,,,,,S P 500 and 100 constituent Exelon Corp spun off Constellation Energy 7
2022-01-10,WTW,Willis Towers Watson,,1140536,G96629103,WLTW,Willis Towers Watson,,1140536,G96629103,Rename
2021-12-20,SBNY,Signature Bank,,1288784,82669G104,LEG,Leggett & Platt,,58492,524660107,Market capitalization change 8
2021-12-20,SEDG,SolarEdge,,1419612,83417M104,HBI,Hanesbrands,,1359841,410345102,Market capitalization change 8
2021-12-20,FDS,FactSet,,1013237,303075105,WU,Western Union,,1365135,959802109,Market capitalization change 8
2021-12-14,EPAM,EPAM Systems,,1352010,29414B104,KSU,Kansas City Southern,,54480,485170302,Canadian Pacific acquired Kansas City Southern 9
2021-10-01,CTRA,Coterra,,858470,127097103,COG,Cabot Oil & Gas,,858470,127097103,Merger
2021-09-20,MTCH,Match Group,,891103,57667L107,PRGO,Perrigo,,1585364,G97822103,Market capitalization change 10
2021-09-20,CDAY,Ceridian,,1725057,15677J108,UNM,Unum,,5513,91529Y106,Market capitalization change 10
2021-09-20,BRO,Brown & Brown,,79282,115236101,NOV,Nov,,1021860,62955J103,Market capitalization change 10
2021-08-30,TECH,Bio-Techne,,842023,09073M104,MXIM,Maxim Integrated,,743316,57772K101,S P 500 constituent Analog Devices acquired Maxim Integrated Products 11
2021-07-21,MRNA,Moderna,,1682852,60770K107,ALXN,Alexion Pharmaceuticals,,899866,015351109,AstraZeneca acquired Alexion Pharmaceuticals 12
2021-06-04,,,,,,HFC,HollyFrontier,,48039,436106108,Market capitalization change 13
2021-06-03,OGN,Organon & Co.,,1821825,68622V106,,,,,,S P 500 100 constituent Merck Co spun off Organon 13
2021-05-14,CRL,Charles River Laboratories,,1100682,159864107,FLIR,FLIR Systems,,354908,302445101,S P 500 constituent Teledyne Technologies acquired FLIR Systems 14
2021-04-20,PTC,PTC,,857005,69370C100,VAR,Varian Medical Systems,,203527,92220P105,Siemens Healthineers acquired Varian Medical Systems 15
2021-03-22,NXPI,NXP,,1413447,N6596X109,FLS,Flowserve,,30625,34354P105,Market capitalization change 16
2021-03-22,PENN,Penn National Gaming,,921738,707569109,SLG,SL Green Realty,,1040971,78440X887,Market capitalization change 16
2021-03-22,GNRC,Generac Holdings,,1474735,368736104,XRX,Xerox,,108772,98421M106,Market capitalization change 16
2021-03-22,CZR,Caesars Entertainment,,1590895,12769G100,VNT,Vontier,,1786842,928881101,Market capitalization change 16
2021-03-01,APA,APA Corporation,,1841666,03743Q108,APA,Apache Corporation,,6769,037411105,Company rename and new holding company structure
2021-02-12,MPWR,Monolithic Power Systems,,1280452,609839105,FTI,TechnipFMC,,1681459,G87110105,TechnipFMC was removed from the S P 500 in anticipation of its announced spin off of Technip Energies 17
2021-01-21,TRMB,Trimble,,864749,896239100,CXO,Concho Resources,,1358071,20605P101,S P 500 100 constituent ConocoPhillips acquired Concho Resources 18
2021-01-07,ENPH,Enphase Energy,,1463101,29355A107,TIF,Tiffany & Co,,98246,886547108,LVMH Moet Hennessy Louis Vuitton SE acquired Tiffany Co 19
2020-12-21,TSLA,Tesla,,1318605,88160R101,AIV,Apartment Investment & Management,A,922864,03748R754,Apartment Investment and Management Aimco spun off Apartment Income REIT 20
2020-11-16,VTRS,Viatris,,1792044,92556V106,MYL,Mylan N.V.,,1623613,N59465109,Merger rename
2020-10-12,,,,,,NBL,Noble Energy,,72207,655044105,Chevron acquired Noble Energy 21
2020-10-09,VNT,Vontier,,1786842,928881101,,,,,,S P 500 constituent Fortive spun off Vontier 21
2020-10-07,POOL,Pool Corporation,,945841,73278L105,ETFC,E-Trade,,1015780,269246401,Morgan Stanley acquired E Trade 22
2020-09-21,ETSY,Etsy,,1370637,29786A106,HRB,H&R Block,,12659,093671105,Market capitalization change 23
2020-09-21,TER,Teradyne,,97210,880770102,COTY,Coty,A,1024305,222070203,Market capitalization change 23
2020-09-21,CTLT,Catalent,,1596783,148806102,KSS,Kohl's,,885639,500255104,Market capitalization change 23
2020-06-22,BIO,Bio-Rad Laboratories,A,12208,090572207,ADS,Alliance Data Systems,,1101215,018581108,Market capitalization change 24
2020-06-22,TDY,Teledyne Technologies,,1094285,879360105,HOG,Harley-Davidson,,793952,412822108,Market capitalization change 24
2020-06-22,TYL,Tyler Technologies,,860731,902252105,JWN,Nordstrom,,702165,655664100,Market capitalization change 24
2020-05-22,WST,West Pharmaceutical Services,,105770,955306105,HP,Helmerich & Payne,,46765,423452101,Market capitalization change 25
2020-05-12,DPZ,Domino's Pizza,,1286681,25754A201,CPRI,Capri Holdings,,1530721,G1890L107,Market capitalization change 26
2020-05-12,DXCM,Dexcom,,1093557,252131107,AGN,Allergan,,1578845,G0177J108,Allergan acquired by AbbVie 26
2020-04-06,,,,,,M,Macy's,,794367,55616P104,Market capitalization change 27
2020-04-06,,,,,,RTN,Raytheon Company,,1047122,755111507,United Technologies spun off Otis and Carrier and acquired Raytheon Company 27
2020-04-03,OTIS,Otis Worldwide,,1781335,68902V107,,,,,,United Technologies spun off Otis and Carrier and acquired Raytheon Company 27
2020-04-03,CARR,Carrier,,1783180,14448C104,,,,,,United Technologies spun off Otis and Carrier and acquired Raytheon Company 27
2020-04-01,HWM,Howmet Aerospace,,4281,443201108,ARNC,Arconic,,4281,03965L100,Arconic separated into 2 companies Howmet remained on the index 28
2020-03-02,IR,Ingersoll Rand,,1699150,45687V106,XEC,Cimarex Energy,,1168054,171798101,Gardner Denver acquired Ingersoll Rand s industrial businesses then changed its name to the new Ingersoll Rand Inc and was listed under IR from March 2 2020 29 30
2020-01-28,PAYC,Paycom,,1590955,70432V102,WCG,WellCare,,1279363,94946T106,S P 500 constituent Centene Corp NYSE CNC acquired Wellcare Health Plans 31
2019-12-23,LYV,Live Nation Entertainment,,1335258,538034109,AMG,Affiliated Managers Group,,1004434,008252108,Market capitalization change 32
2019-12-23,ZBRA,Zebra Technologies,A,877212,989207105,TRIP,TripAdvisor,,1526520,896945201,Market capitalization change 32
2019-12-23,STE,Steris,,1757898,G8473T100,MAC,Macerich,,912242,554382101,Market capitalization change 32
2019-12-10,J,Jacobs,,52988,469814107,JEC,Jacobs Engineering Group,,52988,469814107,Rename
2019-12-09,ODFL,Old Dominion Freight Line,,878927,679580100,STI,SunTrust Banks,,750556,867914103,BB T acquired SunTrust to form Truist Financial 33
2019-12-05,VIAC,Viacom,B,813828,92556H206,CBS,CBS Corp.,B,813828,124857202,CBS acquired Viacom to form ViacomCBS 34
2019-12-05,WRB,Berkley,,11544,084423102,VIAB,Viacom,B,1339947,92553P201,CBS acquired Viacom to form ViacomCBS 34
2019-11-21,NOW,ServiceNow,,1373715,81762P102,CELG,Celgene,,816284,151020104,Bristol Myers Squibb NYSE BMY acquired Celgene 35
2019-10-03,LVS,Las Vegas Sands,,1300514,517834107,NKTR,Nektar Therapeutics,,906709,640268108,Market capitalization change 36
2019-09-26,NVR,NVR,,906163,62944T105,JEF,Jefferies Financial Group,,96223,47233W109,JEF spun off SPB 37
2019-09-23,CDW,CDW,,1402057,12514G108,TSS,TSYS,,721683,891906109,S P 500 constituent Global Payments NYSE GPN acquired TSS 38
2019-08-09,LDOS,Leidos,,1336920,525327102,APC,Anadarko Petroleum,,773910,032511107,S P 500 100 constituent Occidental Petroleum Corp NYSE OXY acquired Anadarko Petroleum 39
2019-08-09,IEX,IDEX,,832101,45167R104,FL,Foot Locker,,850209,344849104,Market capitalization change 39
2019-07-15,TMUS,T-Mobile US,,1283699,872590104,RHT,Red Hat,,1087423,756577102,S P 500 100 constituent IBM acquired Red Hat 40
2019-07-01,LHX,L3Harris Technologies,,202058,502431109,HRS,Harris Corporation,,202058,413875105,Merger
2019-07-01,MKTX,MarketAxess,,1278021,57060D108,LLL,L3 Technologies,,1039101,502413107,L3 purchased by Harris Corporation 41
2019-06-07,AMCR,Amcor,,1748790,G0250X107,MAT,Mattel,,63276,577081102,Bemis merged with Amcor subsequently renamed to Amcor 42
2019-06-03,DD,DuPont,,1666700,26614N102,DWDP,DuPont,,1666700,26078J100,DWDP changed to DD after spinning off Corteva 43
2019-06-03,CTVA,Corteva,,1755672,22052L104,FLR,Fluor Corporation,,1124198,343412102,CTVA spun off from DWDP which then changed symbol to DD 43
2019-04-02,DOW,Dow,,1751788,260557103,BHF,Brighthouse Financial,,1685040,10922N103,DOW spun off from DWDP 44
2019-03-19,DIS,Disney,,1744489,254687106,DIS,The Walt Disney Company,,1001039,254687106,21st century fox disney merger
2019-03-19,FOXA,Fox Corporation,A,1754301,35137L105,FOXA,Twenty-First Century Fox,A,1308161,90130A101,21st century fox disney merger
2019-03-19,FOX,Fox Corporation,B,1754301,35137L204,FOX,Twenty-First Century Fox,B,1308161,90130A200,21st century fox disney merger
2019-02-27,WAB,Wabtec,,943452,929740108,GT,The Goodyear Tire & Rubber Company,,42582,382550101,WAB acquired GE transportation business 45
2019-02-15,ATO,Atmos Energy,,731802,049560105,NFX,Newfield Exploration,,912750,651290108,ECA acquired NFX 46
2019-01-18,TFX,Teleflex,,96943,879369106,PCG,Pacific Gas & Electric Company,,1004980,69331C108,PCG filed for bankruptcy 47
2019-01-02,CPRI,Capri Holdings,,1530721,G1890L107,KORS,Michael Kors,,1530721,G60754101,Aquisition rename
2019-01-02,FRC,First Republic Bank,,1132979,33616C100,SCG,SCANA,,754737,80589M102,Dominion Energy acquired SCANA Corporation 48
2018-12-24,CE,Celanese,,1306830,150870103,ESRX,Express Scripts,,1532063,30219G108,S P 500 constituent Cigna NYSE CI acquired ESRX 49
2018-12-24,CI,Cigna,,1739940,125523100,CI,CIGNA Corp.,,701221,125509109,S P 500 constituent Cigna NYSE CI acquired ESRX 49
2018-12-03,LW,Lamb Weston,,1679273,513272104,COL,Rockwell Collins,,1137411,774341101,UTX acquired COL 50
2018-12-03,MXIM,Maxim Integrated,,743316,57772K101,AET,Aetna,,1122304,00817Y108,CVS acquired Aetna 50
2018-12-03,FANG,Diamondback Energy,,1539838,25278X109,SRCL,Stericycle,,861878,858912108,Market Capitalization change 50
2018-11-13,JKHY,Jack Henry & Associates,,779152,426281101,EQT,EQT,,33213,26884L109,EQT spun off ETRN 51
2018-11-06,KEYS,Keysight Technologies,,1601046,49338L103,CA,CA Technologies,,356028,12673P105,CA acquired by Broadcom 52
2018-11-02,WRK,WestRock,,1732845,96145D105,WRK,WestRock,,1636023,96145D105,Westrock aquires KapStone
2018-10-31,LIN,Linde,,1707925,G5494J103,PX,Praxair Inc.,,884905,74005P104,Praxair merges with Linde and changes name
2018-10-11,FTNT,Fortinet,,1262039,34959E109,EVHC,Envision Healthcare,,1678531,29414D100,EVHC acquired by KKR 53
2018-10-01,ROL,Rollins,,84839,775711104,ANDV,Andeavor,,50104,03349M105,ANDV acquired by Marathon Petroleum 54
2018-09-14,WCG,WellCare,,1279363,94946T106,XL,XL Group,,875159,G98294104,XL acquired by AXA 55
2018-08-28,ANET,Arista Networks,,1596532,040413106,GGP,GGP,,1496048,36174X101,GGP acquired by Brookfield Property Partners 56
2018-07-02,CPRT,Copart,,1163165,20825C104,DPS,Dr Pepper Snapple Group,,1418135,26138E109,DPS acquired by Keurig Green Mountain 57
2018-06-20,FLT,FleetCor Technologies,,1175454,339041105,TWX,Time Warner,,1105705,887317303,AT T acquired Time Warner 58
2018-06-18,BR,Broadridge Financial Solutions,,1383312,11133T103,RRC,Range Resources,,315852,75281A109,Market capitalization change 59
2018-06-18,HFC,HollyFrontier,,48039,436106108,AYI,Acuity Brands,,1144215,00508Y102,Market capitalization change 59
2018-06-07,TWTR,Twitter,,1418091,90184L102,MON,Monsanto,,1110783,61166W101,Bayer acquired Monsanto 60
2018-06-05,EVRG,Evergy,,1711269,30034W106,NAVI,Navient,,1593538,63938C108,Westar Energy NYSE WR acquired Great Plains Energy NYSE GXP and changed name to Evergy 61
2018-05-31,ABMD,Abiomed,,815094,003654100,WYN,Wyndham Worldwide,,1361658,98310W108,Wyndham Worldwide spun off Wyndham Hotels Resorts NYSE WH 62
2018-04-04,MSCI,MSCI,,1408198,55354G100,CSRA,CSRA,,1646383,12650T104,S P 500 constituent General Dynamics NYSE GD acquired CSRA 63
2018-04-04,AVGO,Broadcom,,1730168,11135F101,AVGO,Broadcom,,1649338,Y09827109,Broadcom relocates from sinapore
2018-03-19,TTWO,Take-Two Interactive,,946581,874054109,SIG,Signet Jewelers,,832988,G81276100,Market capitalization change 64
2018-03-19,SIVB,SVB Financial,,719739,78486Q101,PDCO,Patterson Companies,,891024,703395103,Market capitalization change 64
2018-03-19,NKTR,Nektar Therapeutics,,906709,640268108,CHK,Chesapeake Energy,,895126,165167107,Market capitalization change 64
2018-03-07,IPGP,IPG Photonics,,1111928,44980X109,SNI,Scripps Networks Interactive,A,1430602,811065101,Discovery Communications acquired SNI 65
2018-02-27,BKNG,Booking Holdings,,1075531,09857L108,PCLN,Priceline.com,,1075531,741503403,Rename
2018-01-03,HII,Huntington Ingalls Industries,,1501585,446413106,BCR,CR Bard,,9892,067383109,Becton Dickinson acquired BCR 66
2017-12-04,APTV,Aptiv,,1521332,G6095L109,DLPH,Delphi Automotive,,1521332,G27823106,Rename
2017-10-13,NCLH,Norwegian Cruise Line Holdings,,1513761,G66721104,LVLT,Level 3 Communications,,794323,52729N308,CenturyLink acquired LVLT 67
2017-09-18,CDNS,Cadence Design Systems,,813672,127387108,SPLS,Staples,,791519,855030102,Sycamore Partners acquired Staples 68
2017-09-01,DWDP,DuPont,,1666700,26078J100,DOW,Dow Chemical Company,,29915,,The Dow Chemical Company renamed to DowDuPont Inc and ticker changed from DOW to DWDP after acquiring DuPont 69
2017-09-01,SBAC,SBA Communications,A,1034054,78410G104,DD,DuPont,,30554,,The Dow Chemical Company acquired DuPont 69
2017-08-29,Q,QuintilesIMS,,1478242,74876Y101,WFM,Whole Foods Market,,865436,,Amazon acquired Whole Foods Market 69
2017-08-08,BHF,Brighthouse Financial,,1685040,10922N103,AN,AutoNation,,350698,,BHF replaced AN 70 MET spun off BHF 70
2017-08-01,ANDV,Andeavor,,50104,03349M105,TSO,Tesoro Corporation,,50104,,Rename
2017-07-26,DRE,Duke Realty Corp,,783280,264411505,RIG,Transocean,,1451505,,Market capitalization change 71
2017-07-26,AOS,A. O. Smith,,91142,831865209,BBBY,Bed Bath & Beyond,,886158,,Market capitalization change 71
2017-07-26,PKG,Packaging Corporation of America,,75677,695156109,MUR,Murphy Oil,,717423,,Market capitalization change 71
2017-07-26,RMD,ResMed,,943819,761152107,MNK,Mallinckrodt,,1567892,,Market capitalization change 71
2017-07-26,MGM,MGM Resorts International,,789570,552953101,RAI,Reynolds American,,1275283,,British American Tobacco NYSE MKT BTI acquired Reynolds American 71
2017-06-19,HLT,Hilton Worldwide,,1585689,43300A203,YHOO,Yahoo!,,1011006,,VZ acquired YHOO operations remainder of YHOO converted to closed end company known as Altaba 72
2017-06-19,ALGN,Align Technology,,1097149,16255101,TDC,Teradata,,816761,,Market capitalization changes 72
2017-06-19,ANSS,Ansys,,1013462,03662Q105,R,Ryder System,,85961,,Market capitalization changes 72
2017-06-19,RE,Everest Re,,1095073,G3223R108,MJN,Mead Johnson,,1452575,,Reckitt Benckiser acquired Mead Johnson Nutrition 73
2017-06-02,INFO,IHS Markit,,1598014,G47567105,TGNA,Tegna,,39899,,TGNA spins off Cars com 74
2017-04-05,IT,Gartner,,749251,366651107,DNB,Dun & Bradstreet,,1115222,,IT acquiring CEB 75
2017-04-04,DXC,DXC Technology,,1688568,23355L106,SWN,Southwestern Energy,,7332,,HPE spins off Everett merged with CSC to form DXC 76 77
2017-03-20,AMD,Advanced Micro Devices,,2488,7903107,URBN,Urban Outfitters,,912615,,Market capitalization changes 78
2017-03-20,RJF,Raymond James Financial,,720005,754730109,FTR,Frontier Communications,,20520,,Market capitalization changes
2017-03-20,ARE,Alexandria,,1035443,15271109,FSLR,First Solar,,1274494,,Market capitalization changes
2017-03-16,SNPS,Synopsys,,883241,871607107,HAR,Harman International,,800459,,Samsung Electronics acquired Harman International Industries 79
2017-03-13,DISH,Dish Network,A,1001082,25470M109,LLTC,Linear Technology,,791907,,S P 500 constituent Analog Devices NASD ADI acquired Linear Technology 80
2017-03-02,REG,Regency Centers,,910606,758849103,ENDP,Endo International,,1100962,,REG acquires EQY 81
2017-03-01,CBOE,Cboe Holdings,,1374310,12503M108,PBI,Pitney Bowes,,78814,,CBOE acquires BATS 81
2017-02-28,INCY,Incyte,,879169,45337C102,SE,Spectra Energy,,1373835,,SE acquired by ENB 81
2017-01-05,IDXX,Idexx Laboratories,,874716,45168D104,STJ,St Jude Medical,,203077,,S P 100 500 constituent Abbott Laboratories NYSE ABT acquired St Jude Medical 82
2016-12-02,MAA,Mid-America Apartments,,912595,59522J103,OI,Owens-Illinois,,812074,,Market capitalization changes 83
2016-12-02,EVHC,Envision Healthcare,,1678531,,LM,Legg Mason,,704051,,Market capitalization changes
2016-11-01,ARNC,Arconic Inc,,4281,,AA,Alcoa Inc,,4281,,AA spins off ARNC 84
2016-09-30,COTY,Coty,A,1024305,222070203,DO,Diamond Offshore Drilling,,949039,,COTY replaces DO 85
2016-09-22,COO,The Cooper Companies,,711404,216648402,HOT,Starwood,,316206,,MAR acquires HOT 86
2016-09-08,CHTR,Charter Communications,A,1091667,16119P108,EMC,EMC Corporation,,790070,,Dell acquires EMC 87
2016-09-06,MTD,Mettler Toledo,,1037646,592688105,TYC,Tyco International,,833444,,TYC acquires JCI and retains JCI ticker 88
2016-07-05,FTV,Fortive Corp,,1659166,34959J108,CPGX,Columbia Pipeline Group,,1629995,,CPGX acquired by TRP 89
2016-07-01,LNT,Alliant Energy Corp,,352541,18802108,GAS,AGL Resources,,1004155,,GAS acquired by SO 90
2016-07-01,ALB,Albemarle Corporation,,915913,12653101,TE,TECO Energy,,350563,,TE acquired by EMA 89
2016-06-22,FBHS,Fortune Brands Home & Security,,1519751,34964C106,CVC,Cablevision Systems,,1053112,,CVC acquired by Altice NV 91
2016-06-03,TDG,TransDigm Group,,1260221,893641100,BXLT,Baxalta,,1620546,,SHPG acquiring BXLT 92
2016-05-31,AJG,Gallagher,,354190,363576109,CCE,Coca-Cola Enterprises,,1491675,,CCE merging with European bottlers 93
2016-05-23,LKQ,LKQ Corporation,,1065696,501889208,ARG,Airgas,,804212,,ARG acquired by Air Liquide 94
2016-05-18,DLR,Digital Realty,,1297996,253868103,TWC,Time Warner Cable,,1377013,,TWC acquired by CHTR 95
2016-05-13,ALK,Alaska Air Group,,766421,11659109,SNDK,SanDisk,,1000180,,SNDK acquired by WDC 96
2016-05-03,AYI,Acuity Brands,,1144215,,ADT,ADT,,1546640,,ADT acquired by APO 97
2016-04-25,GPN,Global Payments,,1123360,37940X102,GME,GameStop,,1326380,36467W109,Global Payments is acquiring Heartland Payment Systems 98
2016-04-18,ULTA,Ulta Beauty,,1403568,90384S303,THC,Tenet Healthcare,,70318,,Ulta replaces Tenet 99
2016-04-08,UA,Under Armour,C,1336917,904311206,,,,,,Under Armour distribution of second class of stock
2016-04-08,UAA,Under Armour,A,1336917,904311107,UA,Under Armour,A,904311107,,Under Armour distribution of second class of stock
2016-04-04,FL,Foot Locker,,850209,,CAM,Cameron International,,941548,,Schlumberger acquired Cameron 100
2016-03-30,HOLX,Hologic,,859737,436440101,POM,Pepco Holdings,,1135971,,Exelon acquired Pepco 101
2016-03-30,CNC,Centene Corporation,,1071739,15135B101,ESV,Ensco,,314808,,Centene acquired Health Net 101
2016-03-07,UDR,UDR,,74208,902653104,GMCR,Keurig Green Mountain,,909954,,JAB Holding Company acquired Keurig Green Mountain 102
2016-03-04,AWK,American Water Works,,1410636,30420103,CNX,Consol Energy,,1070412,,AWK replaces CNX 103
2016-02-22,CXO,Concho Resources,,1358071,,PCL,Plum Creek Timber,,849213,,PCL taken over by WY 104
2016-02-01,CFG,Citizens,,759944,174610105,PCP,Precision Castparts Corporation,,79958,,CFG replaces PCP 105
2016-02-01,FRT,Federal Realty Investment Trust,,34903,313745101,BRCM,Broadcom Corporation,,1054374,,FRT replaces BRCM 106
2016-01-19,EXR,Extra Space Storage,,1289490,30225T102,ACE,Chubb,,896159,,EXR replaces ACE as ACE Ltd acquires Chubb and retains the CB ticker giving up ACE 107
2016-01-05,WLTW,Willis Towers Watson,,1140536,,FOSL,Fossil Group,,883569,,WSH merges with TW and renames to WLTW 108
2015-12-29,CHD,Church & Dwight,,313927,171340102,ALTR,Altera,,768251,,ALTR taken over by INTC 109
2015-12-15,,,,,,CMCSK,Comcast,A,1166691,,CMCSK shares no longer listed 110
2015-12-01,CSRA,CSRA,,1646383,,CSC,Computer Sciences Corporation,,23082,,CSC spins off CSRA 111
2015-11-19,ILMN,Illumina,,1110803,452327109,SIAL,Sigma-Aldrich,,90185,,Sigma Aldrich acquired by Merck KGaA MKGAY 112
2015-11-18,SYF,Synchrony Financial,,1601712,87165B103,GNW,Genworth Financial,,1276520,,GE spinning off Synchrony Financial 113
2015-11-02,HPE,Hewlett Packard Enterprise,,1645590,42824C109,HCBK,Hudson City Bancorp,,921847,,HPQ spins off HPE 114
2015-10-07,VRSK,Verisk Analytics,,1442145,92345Y106,JOY,Joy Global,,801898,,Market capitalization change 115
2015-09-18,CMCSK,Comcast,A,1166691,,,,,,,Share class methodology change 116
2015-09-18,FOX,Twenty-First Century Fox,B,1754301,35137L204,,,,,,Share class methodology change
2015-09-18,NWS,News Corporation,B,1564708,65249B208,,,,,,Share class methodology change
2015-09-02,UAL,United Continental Holdings,,100517,,HSP,Hospira,,1274057,,Hospira taken over 117
2015-08-28,ATVI,Activision Blizzard,,718877,00507V109,PLL,Pall Corporation,,75829,,Pall taken over 117
2015-07-29,SIG,Signet Jewelers,,832988,,DTV,DirecTV,,1465112,,DirectTV acquired by AT T 118
2015-07-20,PYPL,PayPal,,1633917,70450Y103,NE,Noble Corporation,,1458891,,PayPal Spun off by eBay 119
2015-07-08,AAP,Advance Auto Parts,,1158449,00751Y106,FDO,Family Dollar,,34408,,Family Dollar acquired 120
2015-07-06,KHC,Kraft Heinz,,1637459,500754106,KRFT,Kraft Foods,,1545158,,Kraft merger with Heinz 121
2015-07-02,CPGX,Columbia Pipeline Group,,1629995,,ATI,Allegheny Technologies,,1018963,,Spin off of Columbia Pipeline 122
2015-07-01,JBHT,J.B. Hunt,,728535,445658107,TEG,Integrys Energy Group,,916863,,Integris taken over 123
2015-07-01,BXLT,Baxalta,,1620546,,QEP,QEP Resources,,1108827,,Baxalta spun off by Baxter 124
2015-06-11,QRVO,Qorvo,,1604778,74736K101,LO,Lorillard Tobacco Company,,1424847,,Lorillard gets acquired 125
2015-04-07,O,Realty Income Corporation,,726728,756109104,WIN,Windstream Communications,,1282266,,Market capitalization change 126
2015-03-23,AAL,American Airlines Group,,6201,02376R102,AGN,Allergan,,850693,,Allergan acquired by Actavis and changed name to Allergan 127
2015-03-23,EQIX,Equinix,,1101239,29444U700,DNR,Denbury Resources,,945764,,Market Capitalization Changes 128
2015-03-23,SLG,SL Green Realty,,1040971,,NBR,Nabors Industries,,1163739,,Market Capitalization Changes
2015-03-23,HBI,Hanesbrands,,1359841,,AVP,Avon Products,,8868,,Market Capitalization Changes
2015-03-18,HSIC,Henry Schein,,1000228,806407102,CFN,Carefusion,,1457543,,Carefusion acquired by Becton Dickinson 129
2015-03-12,SWKS,Skyworks,,4127,83088M102,PETM,PetSmart,,863157,,PetSmart acquired by private equity consortium 130
2015-01-27,HCA,HCA Holdings,,860730,40412C101,SWY,Safeway,,86144,,Safeway acquired by private equity consortium 131
2015-01-27,ENDP,Endo International,,1100962,,COV,Covidien,,1385187,,Covidien acquired by Medtronic 132
2014-12-05,RCL,Royal Caribbean Cruises,,884887,V7780T103,BMS,Bemis Company,,11199,,Market cap changes 133
2014-11-05,LVLT,Level 3 Communications,,794323,,JBL,Jabil Circuit,,898293,,Market cap changes 134
2014-09-20,URI,United Rentals,,1067701,911363109,BTU,Peabody Energy,,1064728,,Market cap changes 135
2014-09-20,UHS,Universal Health Services,B,352915,913903100,GHC,Graham Holdings,,104889,,Market cap changes
2014-08-18,MNK,Mallinckrodt,,1567892,,RDC,Rowan Companies,,85408,,Market cap changes 136
2014-08-06,DISCK,Discovery Communications,C,1437107,25470F302,,,,,,Class C share distribution 137
2014-07-02,MLM,Martin Marietta,,916076,573284106,X,United States Steel,,1163302,,Market capitalization changes 138
2014-07-01,AMG,Affiliated Managers Group,,1004434,,FRX,Forest Laboratories,,38074,,Actavis acquires Forest Laboratories 139
2014-06-20,XEC,Cimarex Energy,,1168054,,IGT,International Game Technology,,353944,,Market capitalization changes 140
2014-05-08,AVGO,Avago Technologies,,1441634,,LSI,LSI Corporation,,703360,,Avago acquires LSI 141
2014-05-01,UAA,Under Armour,A,1336917,904311107,BEAM,Beam Inc,,,,Beam acquired by Suntory 142
2014-05-01,NAVI,Navient,,1593538,,SLM,SLM Corporation,,,,Navient Spun off from SLM 142
2014-04-03,GOOGL,Google,A,1652044,02079K305,,,,,,Google Class C share distribution 143
2014-04-03,GOOG,Google,C,1652044,02079K107,GOOG,Google,A,1652044,38259P508,Google Class C share distribution 143
2014-04-02,ESS,Essex Property Trust,,920522,297178105,CLF,Cliffs Natural Resources,,,,Market capitalization changes 144
2014-03-21,GMCR,Keurig Green Mountain,,909954,,WPX,WPX Energy,,,,Market capitalization changes 145
2014-01-24,TSCO,Tractor Supply Company,,916365,892356106,LIFE,Life Technologies,,,,Life Technologies acquired by Thermo Fisher Scientific Inc 146
2013-12-23,ADS,Alliance Data Systems,,1101215,,ANF,Abercrombie & Fitch,,,,Market capitalization changes 147
2013-12-23,MHK,Mohawk Industries,,851968,608190104,JDSU,JDS Uniphase,,,,Market capitalization changes 147
2013-12-23,FB,Facebook,A,1326801,30303M102,TER,Teradyne,,,,Market capitalization changes 147
2013-12-10,GGP,General Growth Properties,,1496048,,MOLX,Molex,,,,MOLX acquired by Koch Industries 148
2013-12-02,ALLE,Allegion,,1579241,G0176J109,JCP,JCPenney,,,,Allegion spun off by Ingersoll Rand 149
2013-11-13,KORS,Michael Kors,,1530721,,NYX,NYSE Euronext,,,,ICE Exchange acquired NYSE Euronext 150
2013-10-29,RIG,Transocean,,1451505,,DELL,Dell,,,,Founder Michael Dell and Silver Lake Partners acquired Dell 151
2013-09-20,VRTX,Vertex Pharmaceuticals,,875320,92532F100,AMD,Advanced Micro Devices,,2488,7903107,Market capitalization change 152
2013-09-20,AME,Ametek,,1037868,31100100,SAI,SAIC,,,,Market capitalization change 152
2013-09-10,DAL,Delta Air Lines,,27904,247361702,BMC,BMC Software,,835729,,BMC taken private by consortium 153
2013-07-08,NLSN,Nielsen Holdings,,1492633,G6518L108,S,Sprint Nextel,,,,Softbank consortium purchase results in public float below 50 154
2013-06-28,FOXA,21st Century Fox,A,1754301,35137L105,APOL,Apollo Education Group,,929887,,Apollo Group s market cap more representative of a mid cap 155
2013-06-21,ZTS,Zoetis,,1555280,98978V103,FHN,First Horizon,,,,Zoetis spun off by Pfizer 156
2013-06-06,GM,General Motors,,1467858,37045V100,HNZ,Heinz,,,,HNZ acquired by consortium 157
2013-05-23,KSU,Kansas City Southern,,54480,,DF,Dean Foods,,931336,,DF too small after spinoff of White Wave Foods 158
2013-05-08,MAC,Macerich,,912242,,CVH,Coventry Health Care,,1054833,,Acquired by Aetna AET 159
2013-04-30,REGN,Regeneron Pharmaceuticals,,872589,75886F107,PCS,MetroPCS,,,,A majority of MetroPCS was acquired by T Mobile 160
2013-02-28,JEF,Jefferies Financial Group,,,,LUK,Leucadia National,,,,Merger
2013-02-15,PVH,PVH,,78239,693656100,BIG,Big Lots,,,,Market capitalization changes 161
2012-12-31,ABBV,AbbVie,,1551152,00287Y109,FII,Federated Investors,,,,ABBV spun off from Abbott Labs ABT 162
2012-12-21,DLPH,Delphi Automotive,,1521332,,TIE,Titanium Metals,,,,TIE acquired by Precision Cast Parts PCP 163
2012-12-11,GRMN,Garmin,,1121788,H2906T109,RRD,RR Donnelley,,,,Market capitalization changes 164
2012-12-03,DG,Dollar General,,29534,256677105,CBE,Cooper Industries,,1141982,,Acquired by Eaton Corp ETN 165
2012-10-10,PETM,PetSmart,,863157,,SUN,Sunoco,,,,Acquired by Energy Transfer Partners ETP 166
2012-10-02,KRFT,Kraft Foods,,1545158,,ANR,Alpha Natural Resources,,1301063,,Kraft split into two companies 167
2012-10-02,,,,,,KFT,Kraft Foods,,,,Split Rename
2012-10-01,ADT,ADT,,1546640,,LXK,Lexmark,,,,Tyco spun off ADT 168
2012-10-01,PNR,Pentair,,77360,G7S00T104,DV,DeVry,,,,Tyco spin off merged w Pentair 168
2012-09-05,LYB,LyondellBasell,,1489393,N53745100,SHLD,Sears Holdings,,,,SHLD below public float threshold 169
2012-07-31,ESV,Ensco,,314808,,GR,Goodrich Corporation,,,,Goodrich acquired by United Technologies UTX 170
2012-07-02,STX,Seagate Technology,,1137789,G7997R103,PGN,Progress Energy,,,,Acquired by Duke Energy DUK 171
2012-06-29,MNST,Monster Beverage,,865752,61174X109,SLE,Sara Lee Corporation,,,,Split up of Sara Lee 172
2012-06-05,LRCX,Lam Research,,707549,,NVLS,Novellus Systems,,,,Acquired by Lam Research LRCX 173
2012-05-21,ALXN,Alexion Pharmaceuticals,,899866,,MMI,Motorola Mobility,,,,Acquired by Google GOOG 174
2012-05-17,KMI,Kinder Morgan,,1506307,49456B101,EP,El Paso Corporation,,,,Acquired by Kinder Morgan KMI 175
2012-04-23,PSX,Phillips 66,,1534701,718546104,SVU,Supervalu,,,,ConocoPhillips spun off Phillips 66 176
2012-04-03,FOSL,Fossil,,883569,,MHS,Medco Health Solutions,,,,Acquired by Express Scripts ESRX 177
2012-03-13,CCI,Crown Castle,,1051470,22822V101,CEG,Constellation Energy Group,,210371100,,Acquired by Exelon Corp EXC 178
2011-12-31,WPX,WPX Energy,,,,CPWR,Compuware,,,,Market capitalization changes 179
2011-12-20,TRIP,TripAdvisor,,1526520,,TLAB,Tellabs,,,,Expedia spun off TripAdvisor 180
2011-12-16,BWA,BorgWarner,,908255,99724106,AKS,AK Steel,,918160,,Market capitalization changes 181
2011-12-16,PRGO,Perrigo,,1585364,,MWW,Monster Worldwide,,,,Market capitalization changes
2011-12-16,DLTR,Dollar Tree,,935703,256746108,WFR,MEMC Electronic Materials,,,,Market capitalization changes
2011-12-12,GAS,AGL Resources.,,1004155,,GAS,Nicor Gas,,,,Nicor acquired by AGL which retained the GAS ticker 182
2011-11-18,CBE,Cooper Industries,,1141982,,JNS,Janus Capital Group,,,,Janus Capital Group s market capitalization is less than 1 2 billion and is no longer representative of the large cap market space 183
2011-10-31,XYL,Xylem,,1524472,98419M100,ITT,ITT,,,,Spun off from ITT Corp 184
2011-10-14,TEL,TE Connectivity,,1385157,H84989104,CEPH,Cephalon,,873364,,Acquired by Teva Pharmaceutical Industries TEVA 185
2011-09-23,MOS,The Mosaic Company,,1285785,61945C103,NSM,National Semiconductor,,,,Acquired by Texas Instruments TXN 186
2011-07-05,ACN,Accenture,A,1467373,G1151C101,MI,Marshall & Ilsley,,,,Marshall Iisley is being bought by Bank of Montreal 187
2011-06-30,MPC,Marathon Oil,,1510295,,RSH,RadioShack,,,,Market capitalization adjustments 188
2011-06-01,ANR,Alpha Natural Resources,,1301063,,MEE,Massey Energy,,,,Alpha Natural Resources acquired Massey Energy 189
2011-04-27,CMG,Chipotle Mexican Grill,,1058090,169656105,NOVL,Novell,,,,Acquired by private equity firms 190
2011-04-01,BLK,BlackRock,,1364742,09247X101,GENZ,Genzyme,,,,Acquired by Sanofi Aventis SNY 191
2011-03-31,EW,Edwards Lifesciences,,1099800,28176E108,Q,Qwest Communications,,,,Acquired by CenturyLink 192
2011-02-28,COV,Covidien,,1385187,,MFE,McAfee,,,,Acquired by Intel 193
2011-02-25,JOY,Joy Global,,801898,,AYE,Allegheny Energy,,3673,,Acquired by First Energy FE 194
2010-12-17,CVC,Cablevision,,1053112,,KG,King Pharmaceuticals,,,,Acquired by Pfizer 195
2010-12-17,FFIV,F5 Networks,,1048695,315616102,EK,Eastman Kodak,,,,Market Cap changes 195
2010-12-17,NFLX,Netflix,,1065280,64110L106,ODP,Office Depot,,,,Market Cap changes
2010-12-17,NFX,Newfield Exploration,,912750,,NYT,The New York Times Company,,,,Market Cap changes
2010-11-17,IR,Ingersoll-Rand,,1466258,,PTV,Pactiv,,,,Reynolds Group Holdings acquired Pactiv 196
2010-08-26,TYC,Tyco International,,833444,,SII,Smith International,,,,Acquired by Schlumberger SLB 197
2010-07-14,CB,Chubb,,20171,,MIL,Millipore,,,,Acquired by Merck KGaA MKGAY 198
2010-06-30,QEP,QEP Resources,,1108827,,STR,Questar,,,,Company split QEP retained but ticker changed 199
2010-06-28,KMX,CarMax,,1170010,143130102,XTO,XTO Energy,,,,Acquired by ExxonMobil 200
2010-04-29,CERN,Cerner,,804753,156782104,BJS,BJ Services,,864328,,Acquired by Baker Hughes 201
2010-02-26,HP,Helmerich & Payne,,46765,,RX,IMS Health,,,,Taken private 202
2009-12-18,V,Visa,A,1403161,92826C839,CIEN,Ciena,,,,Market capitalization change 203
2009-12-18,MJN,Mead Johnson Nutrition,,1452575,,DYN,Dynegy,,,,Market capitalization change 203
2009-12-18,CLF,Cliffs Natural Resources,,,,KBH,KB Home,,,,Market capitalization change 203
2009-12-18,SAI,SAIC,,,,CVG,Convergys,,1062047,,Market capitalization change 203
2009-12-18,ROST,Ross Stores,,745732,778296103,MBI,MBIA,,,,Market capitalization change 203
2009-11-03,PCLN,Priceline.com,,1075531,,SGP,Schering-Plough,,,,Acquired by Merck Co MRK 204
2009-09-28,ARG,Airgas,,804212,,CBE,Cooper Industries,,24454,,Redomesticated to Ireland 205
2009-03-03,HRL,Hormel Foods,,48465,440452100,ACAS,American Capital,,817473,,Capitalization rebalance 206
2009-03-03,VTR,Ventas,,740260,92276F100,JNY,Jones Apparel Group,,,,Capitalization rebalance
2008-12-31,OI,Owens-Illinois,,812074,,WB,Wachovia Bank,,,,Wachovia Bank acquired by Wells Fargo 207
2008-09-16,HRS,Harris Corporation,,202058,,LEH,Lehman Brothers,,,,Lehman Brothers bankruptcy 208
2008-09-12,CRM,Salesforce,,1108524,79466L302,FRE,Freddie Mac,,,,Capitalization rebalance 209
2008-09-12,FAST,Fastenal,,815556,311900104,FNM,Fannie Mae,,,,Capitalization rebalance 209
2008-06-23,COG,Cabot Oil & Gas,,858470,,BC,Brunswick,,,,Market capitalization change 210
2008-06-23,MEE,Massey Energy,,,,OMX,OfficeMax,,,,Market capitalization change 210
2008-06-10,LO,Lorillard Tobacco Company,,1424847,,ABK,Ambac Financial,,874501,,Market Value Decline 211
2007-12-20,RRC,Range Resources,,315852,,TRB,Tribune Media,,,,Taken private 212
2007-12-13,GME,GameStop,,1326380,36467W109,DJ,Dow Jones,,29924,,Acquired by News Corporation 213
2007-10-26,JEC,Jacobs Engineering Group,,52988,,AV,Avaya,,1116521,,Taken private 214
2007-10-02,EXPE,Expedia,,1324424,30212P303,SLR,Solectron,,,,Solectron acquired by Flextronics 215
2007-10-01,TDC,Teradata,,816761,,NCR,NCR Corporation,,,,Teradata spun off by NCR Corporation 215
2007-09-27,TSO,Tesoro Corporation,,50104,,MXIM,Maxim Integrated Products,,,,MXIM delisted from NASDAQ exchange 215
2007-09-26,ICE,Intercontinental Exchange,,1571949,45866F104,FDC,First Data,,,,FDC acquired by KKR 215
2007-08-24,LUK,Leucadia National,,96223,,KSE,KeySpan,,,,Acquired by National Grid plc 216
2007-03-30,KFT,Kraft Foods,,,,TSG,Sabre Corporation,,,,Taken Private 217
2007-01-10,AVB,AvalonBay Communities,,915912,53484101,SBL,Symbol Technologies,,,,Acquired by Motorola 218
2006-06-02,JNPR,Juniper Networks,,1043604,48203R104,ABS,Albertsons,,3333,,Albertsons acquired by SuperValu and CVS Corp 219
2005-11-18,AMZN,Amazon,,1018724,23135106,T,AT&T Corporation,,,,AT T Corp acquired by SBC Communications 220
2005-07-01,STZ,Constellation Brands,A,16918,21036P108,GLK,Great Lakes Chemical,,,,Acquired by Crompton Corp 221
2003-09-25,ESRX,Express Scripts,,1532063,,QTRN,Quintiles Transnational,,,,Taken private 222
2000-12-05,INTU,Intuit,,896878,461202103,BS,Bethlehem Steel,,11860,,Market Cap changes 223
2000-12-05,SBL,Symbol Technologies,,,,OI,Owens-Illinois,,,,Market Cap changes
2000-12-05,AYE,Allegheny Energy,,3673,,GRA,WR Grace,,,,Market Cap changes
2000-12-05,ABK,Ambac Financial,,874501,,CCK,Crown Holdings,,,,Market Cap changes
2000-07-27,JDSU,JDS Uniphase,,,,RAD,RiteAid,,,,Market Cap change 224
1999-12-07,YHOO,Yahoo!,,1011006,,LDW,Laidlaw,,,,Market capitalization change 225
